<?xml version="1.0" encoding="UTF-8"?>
<svg width="53px" height="53px" viewBox="0 0 53 53" version="1.1" xmlns="http://www.w3.org/2000/svg" xmlns:xlink="http://www.w3.org/1999/xlink">
    <title>Group 10</title>
    <defs>
        <rect id="path-1" x="0" y="0" width="45" height="45"></rect>
        <filter x="-15.6%" y="-11.1%" width="131.1%" height="131.1%" filterUnits="objectBoundingBox" id="filter-2">
            <feOffset dx="0" dy="2" in="SourceAlpha" result="shadowOffsetOuter1"></feOffset>
            <feGaussianBlur stdDeviation="2" in="shadowOffsetOuter1" result="shadowBlurOuter1"></feGaussianBlur>
            <feColorMatrix values="0 0 0 0 0   0 0 0 0 0   0 0 0 0 0  0 0 0 0.5 0" type="matrix" in="shadowBlurOuter1"></feColorMatrix>
        </filter>
    </defs>
    <g id="Page-1" stroke="none" stroke-width="1" fill="none" fill-rule="evenodd">
        <g id="specs_integration_general" transform="translate(-925.000000, -3036.000000)">
            <g id="Group-10" transform="translate(929.000000, 3038.000000)">
                <g id="Rectangle" opacity="0.9">
                    <use fill="black" fill-opacity="1" filter="url(#filter-2)" xlink:href="#path-1"></use>
                    <use fill="#B5C7CB" fill-rule="evenodd" xlink:href="#path-1"></use>
                </g>
                <g id="Group-7" transform="translate(22.500000, 23.500000) rotate(-90.000000) translate(-22.500000, -23.500000) translate(6.000000, 9.000000)" fill="#000000">
                    <path d="M16.5,5.80013805 C18.1655,5.80013805 19.5,7.08966371 19.5,8.70012079 C19.5,10.3105779 18.1655,11.6001035 16.5,11.6001035 C14.834,11.6001035 13.5,10.3105779 13.5,8.70012079 C13.5,7.08966371 14.834,5.80013805 16.5,5.80013805 M16.4885,8.50788725e-05 C16.0745,0.00645585345 15.744,0.335603895 15.75,0.735318183 L15.75,4.41539629 C13.6285,4.76291088 12,6.55365023 12,8.70012079 C12,10.8465914 13.6285,12.6358807 15.75,12.9838786 L15.75,28.2648544 C15.75,29.2450485 17.25,29.2450485 17.25,28.2648544 L17.25,12.9838786 C19.3715,12.636364 21,10.8465914 21,8.70012079 C21,6.55365023 19.3715,4.76291088 17.25,4.41539629 L17.25,0.735318183 C17.256,0.326903947 16.9115,-0.00611073844 16.4885,8.50788725e-05" id="Fill-1"></path>
                    <path d="M28.5,11.5997652 C30.1655,11.5997652 31.5,12.8892533 31.5,14.4996634 C31.5,16.1095902 30.1655,17.3995615 28.5,17.3995615 C26.8345,17.3995615 25.5,16.1095902 25.5,14.4996634 C25.5,12.8892533 26.8345,11.5997652 28.5,11.5997652 M28.4885,8.50763766e-05 C28.074,0.00645566514 27.744,0.335594107 27.75,0.735296737 L27.75,10.2150638 C25.6285,10.5625683 24,12.3532554 24,14.4996634 C24,16.645588 25.6285,18.4357918 27.75,18.7832963 L27.75,28.2645133 C27.736,29.2451622 29.264,29.2451622 29.25,28.2645133 L29.25,18.7832963 C31.3715,18.4357918 33,16.645588 33,14.4996634 C33,12.3532554 31.3715,10.5625683 29.25,10.2150638 L29.25,0.735296737 C29.256,0.326894412 28.911,-0.00611056023 28.4885,8.50763766e-05" id="Fill-3"></path>
                    <path d="M4.5,18.3667299 C6.166,18.3667299 7.5,19.6567389 7.5,21.2667127 C7.5,22.8766864 6.166,24.1666954 4.5,24.1666954 C2.834,24.1666954 1.5,22.8766864 1.5,21.2667127 C1.5,19.6567389 2.834,18.3667299 4.5,18.3667299 M4.4885,8.50788725e-05 C4.0745,0.00645585345 3.744,0.335603895 3.75,0.735318183 L3.75,16.9819882 C1.6285,17.3295028 -2.10498285e-13,19.1202421 -2.10498285e-13,21.2667127 C-2.10498285e-13,23.4131832 1.6285,25.2029559 3.75,25.5504705 L3.75,28.2648544 C3.7355,29.2450485 5.2645,29.2450485 5.25,28.2648544 L5.25,25.5504705 C7.3715,25.2029559 9,23.4131832 9,21.2667127 C9,19.1202421 7.3715,17.3295028 5.25,16.9819882 L5.25,0.735318183 C5.256,0.326903947 4.9115,-0.00611073844 4.4885,8.50788725e-05" id="Fill-5"></path>
                </g>
            </g>
        </g>
    </g>
</svg>