<?xml version="1.0" encoding="UTF-8"?>
<svg width="67px" height="67px" viewBox="0 0 67 67" version="1.1" xmlns="http://www.w3.org/2000/svg" xmlns:xlink="http://www.w3.org/1999/xlink">
    <g stroke="none" stroke-width="1" fill="none" fill-rule="evenodd">
        <circle fill="#FECA2A" fill-rule="nonzero" cx="33.5" cy="33.5" r="33.5"></circle>
        <g transform="translate(12.000000, 19.000000)">
            <path d="M27.4469451,20.6135897 L27.4469451,20.6135897 C26.9749231,20.6135897 26.5923489,20.2342782 26.5923489,19.7662819 L26.5923489,14.9648711 L28.3015413,14.9648711 L28.3015413,18.9189741 L31.3493163,18.9189741 L31.3493163,20.6135897 L27.4469451,20.6135897 Z M19.7268077,19.20141 C19.7259531,20.4254873 20.0088245,21.6331834 20.5532022,22.7318591 L11.3520496,22.7318591 L11.3520496,9.3446786 L30.6659242,9.3446786 L30.6659242,11.716858 C26.4838152,10.1572468 21.8182895,12.2537686 20.2449779,16.3999281 C19.9051334,17.2958148 19.7296564,18.2445171 19.7268077,19.20141 L19.7268077,19.20141 Z M32.3751167,12.5926918 L32.3751167,3.83717801 C32.3751167,3.36918168 31.9922575,2.98987023 31.5205204,2.98987023 L29.1561375,2.98987023 L29.1561375,1.32349826 C29.1561375,0.855219491 28.7732784,0.476190476 28.3015413,0.476190476 L25.3104545,0.476190476 C24.8384326,0.476190476 24.4558583,0.855219491 24.4558583,1.32349826 L24.4558583,2.98987023 L17.5336289,2.98987023 L17.5336289,1.32349826 C17.5336289,0.855219491 17.1507698,0.476190476 16.6790327,0.476190476 L13.6879459,0.476190476 C13.2159239,0.476190476 12.8333497,0.855219491 12.8333497,1.32349826 L12.8333497,2.98987023 L10.4974534,2.98987023 C10.0254314,2.98987023 9.64285714,3.36918168 9.64285714,3.83717801 L9.64285714,23.5791669 C9.64285714,24.0471632 10.0254314,24.4264747 10.4974534,24.4264747 L21.6641773,24.4264747 C24.602564,27.7637376 29.7133343,28.1071797 33.0790191,25.1938531 C36.4449887,22.2799616 36.7913851,17.2130611 33.8527135,13.8760806 C33.4162997,13.3804056 32.9200642,12.9398055 32.3751167,12.5641657 L32.3751167,12.5926918 Z" fill="#384651"></path>
        </g>
    </g>
</svg>