<?xml version="1.0" encoding="UTF-8"?>
<svg width="67px" height="67px" viewBox="0 0 67 67" version="1.1" xmlns="http://www.w3.org/2000/svg" xmlns:xlink="http://www.w3.org/1999/xlink">
    <g stroke="none" stroke-width="1" fill="none" fill-rule="evenodd" opacity="0.839262463">
        <circle fill="#8BF478" fill-rule="nonzero" cx="33.5" cy="33.5" r="33.5"></circle>
        <g transform="translate(21.000000, 20.000000)">
            <g transform="translate(7.466331, 0.203631)">
                <path d="M10.8606021,6.40152187 C11.4441782,2.88048688 9.01989055,0.000782087003 5.47377049,0.000782087003 C1.92896404,0.000782087003 -0.495652036,2.88048688 0.0869389065,6.40152187 L0.969035452,11.7348105 C1.31977228,13.8482249 3.34668958,15.5765106 5.47409889,15.5765106 C7.60249342,15.5765106 9.62809711,13.8478943 9.97784872,11.7348105 L10.8606021,6.40152187 Z" fill="#384651"></path>
            </g>
            <g transform="translate(0.202719, 15.814102)">
                <path d="M16.5836714,0 C15.4291062,1.12784397 13.9014567,1.84443168 12.2826089,1.84443168 C10.6640681,1.84443168 9.13611153,1.12784397 7.9815463,0 L1.94218752,2.09201497 C0.873600555,2.4614756 0,3.72236368 0,4.89168423 L0,10.2093011 L24.5652177,10.2093011 L24.5652177,4.89168423 C24.5652177,3.72236368 23.6916172,2.4614756 22.6230302,2.09201497 L16.5836714,0 Z" fill="#384651"></path>
            </g>
        </g>
    </g>
</svg>