<?xml version="1.0" encoding="UTF-8"?>
<svg width="67px" height="67px" viewBox="0 0 67 67" version="1.1" xmlns="http://www.w3.org/2000/svg" xmlns:xlink="http://www.w3.org/1999/xlink">
    <title>Group 28</title>
    <defs>
        <polygon id="path-1" points="1 1 40.091238 1 40.091238 40.2147351 1 40.2147351"></polygon>
    </defs>
    <g id="Page-1" stroke="none" stroke-width="1" fill="none" fill-rule="evenodd">
        <g id="5_HyperOtlet_EncycloV3_interface_XL" transform="translate(-233.000000, -565.000000)">
            <g id="techniques" transform="translate(151.000000, 481.000000)">
                <g id="icone" transform="translate(32.000000, 49.000000)">
                    <g id="Group-28" transform="translate(50.000000, 35.000000)">
                        <circle id="Oval" fill="#A2ADF2" fill-rule="nonzero" cx="33.5" cy="33.5" r="33.5"></circle>
                        <g id="Group-7" transform="translate(14.000000, 14.000000)">
                            <mask id="mask-2" fill="white">
                                <use xlink:href="#path-1"></use>
                            </mask>
                            <g id="Clip-6"></g>
                            <circle id="Oval" fill="#384651" cx="19.0969674" cy="19.1399079" r="15.5"></circle>
                            <path d="M9.09494702e-13,19.6073675 C9.09494702e-13,26.1771246 3.22072508,31.9921612 8.16483818,35.5501196 C11.3701072,37.8567444 15.2997042,39.2147351 19.5456407,39.2147351 C30.3409152,39.2147351 39.0912814,30.4362988 39.0912814,19.6073675 C39.0912814,8.77843631 30.3409152,-2.27373675e-13 19.5456407,-2.27373675e-13 C8.75036617,-2.27373675e-13 9.09494702e-13,8.77843631 9.09494702e-13,19.6073675 Z M32.3873233,21.3024047 C32.3873233,21.5634006 32.1827456,21.834418 31.932127,21.9050045 L29.6709136,22.3903958 C29.4346285,23.2705487 29.0862817,24.1040797 28.6428129,24.8761743 L29.9006834,26.8251466 C30.0279473,27.0521563 29.9819064,27.3894031 29.7981774,27.574148 L27.4909231,29.8886888 C27.3067597,30.0729981 26.9710091,30.1200558 26.7438453,29.9919543 L24.801443,28.7301113 C24.0317791,29.1749807 23.2008722,29.5244275 22.3230557,29.7614588 L21.8396269,32.0298134 C21.7696969,32.2812234 21.4990984,32.4864472 21.2389242,32.4864472 L17.9761052,32.4864472 C17.715931,32.4864472 17.4453325,32.2807877 17.3754025,32.0298134 L16.8919737,29.7614588 C16.0141572,29.5244275 15.1832503,29.1749807 14.4135864,28.7301113 L12.4711841,29.9919543 C12.2444547,30.1196201 11.9082697,30.0729981 11.7245406,29.8886888 L9.41685198,27.574148 C9.23312296,27.3898388 9.18708212,27.0525921 9.31434596,26.8251466 L10.5722165,24.8761743 C10.1287477,24.1040797 9.7804009,23.2705487 9.54411582,22.3903958 L7.28290236,21.9050045 C7.03228382,21.834418 6.82727176,21.5629649 6.82727176,21.3024047 L6.82727176,18.0292815 C6.82727176,17.7682857 7.03228382,17.4972683 7.28290236,17.4266818 L9.54411582,16.9417262 C9.7804009,16.0615733 10.1287477,15.2280423 10.5722165,14.4559477 L9.31434596,12.5074111 C9.18708212,12.2795299 9.23312296,11.9427189 9.41685198,11.7579739 L11.7245406,9.44343313 C11.9082697,9.25912388 12.2440203,9.21250191 12.4711841,9.34016766 L14.4135864,10.6020107 C15.1832503,10.1571413 16.0145916,9.80769445 16.8919737,9.57066316 L17.3754025,7.3023086 C17.4453325,7.05089857 17.715931,6.84567479 17.9761052,6.84567479 L21.2389242,6.84567479 C21.4990984,6.84567479 21.7696969,7.05133429 21.8396269,7.3023086 L22.3230557,9.57066316 C23.2013065,9.80769445 24.0317791,10.1571413 24.801443,10.6020107 L26.7438453,9.34016766 C26.9705747,9.21250191 27.3067597,9.25912388 27.4909231,9.44343313 L29.7981774,11.7579739 C29.9819064,11.9422832 30.0279473,12.2795299 29.9006834,12.5069754 L28.6428129,14.4559477 C29.0862817,15.2280423 29.4346285,16.0615733 29.6709136,16.9417262 L31.932127,17.4266818 C32.1827456,17.4972683 32.3873233,17.7687214 32.3873233,18.0292815 L32.3873233,21.3024047 Z" id="Fill-5" fill="#A2ADF2"></path>
                            <ellipse id="Oval" fill="#A2ADF2" cx="19.4530272" cy="19.5113035" rx="4.8560598" ry="4.87139566"></ellipse>
                        </g>
                    </g>
                </g>
            </g>
        </g>
    </g>
</svg>