<?xml version="1.0" encoding="UTF-8"?>
<svg width="29px" height="19px" viewBox="0 0 29 19" version="1.1" xmlns="http://www.w3.org/2000/svg" xmlns:xlink="http://www.w3.org/1999/xlink">
    <title>noun_timeline_2292422 (1)</title>
    <g id="Page-1" stroke="none" stroke-width="1" fill="none" fill-rule="evenodd">
        <g id="19_HyperOtlet_Chronologie_L" transform="translate(-132.000000, -162.000000)" fill="#FFFFFF" fill-rule="nonzero">
            <g id="haut_mode" transform="translate(41.000000, 152.000000)">
                <g id="noun_timeline_2292422-(1)" transform="translate(91.000000, 10.000000)">
                    <polygon id="Path" points="15 15.5 11.4554795 19 0 19 3.54452055 15.5 0 12 11.4554795 12"></polygon>
                    <polygon id="Path" points="29 15.5 25.4554795 19 14 19 17.5958904 15.5 14 12 25.4554795 12"></polygon>
                    <g id="noun_timeline_3339027" transform="translate(21.500000, 7.500000) rotate(-90.000000) translate(-21.500000, -7.500000) translate(14.000000, 4.000000)">
                        <path d="M11.809222,0.377140156 C10.0621811,0.377140156 8.62622112,1.78698567 8.62622112,3.50223016 C8.62622112,5.21749817 10.0621811,6.6236936 11.809222,6.6236936 C13.5562661,6.6236936 14.9922229,5.21749817 14.9922229,3.50223016 C14.9922229,1.78698567 13.5562661,0.377140156 11.809222,0.377140156 Z M11.809222,2.16877772 C12.5681846,2.16877772 13.1636908,2.75709951 13.1636908,3.50223016 C13.1636908,4.24738433 12.5681846,4.83205604 11.809222,4.83205604 C11.050262,4.83205604 10.4547538,4.24738433 10.4547538,3.50223016 C10.4547538,2.75709951 11.050262,2.16877772 11.809222,2.16877772 Z M1.10522727,2.64267919 C0.725220499,2.64267919 0.419373435,2.94296174 0.419373435,3.31605474 L0.419373435,3.68357017 C0.419373435,4.05666316 0.725220499,4.35694509 1.10522727,4.35694509 L6.9651506,4.35694509 C7.34515674,4.35694509 7.6510038,4.05666316 7.6510038,3.68357017 L7.6510038,3.31605474 C7.6510038,2.94296174 7.34515674,2.64267919 6.9651506,2.64267919 L1.10522727,2.64267919 Z" id="Shape"></path>
                    </g>
                </g>
            </g>
        </g>
    </g>
</svg>