<?xml version="1.0" encoding="UTF-8"?>
<svg width="29px" height="29px" viewBox="0 0 29 29" version="1.1" xmlns="http://www.w3.org/2000/svg" xmlns:xlink="http://www.w3.org/1999/xlink">
    <title>Shape</title>
    <g id="Page-1" stroke="none" stroke-width="1" fill="none" fill-rule="evenodd">
        <g id="specs_integration_general" transform="translate(-901.000000, -3382.000000)" fill="#F7A448" fill-rule="nonzero">
            <g id="noun_Arrow_3325729" transform="translate(901.000000, 3382.000000)">
                <path d="M14.5,0 C6.49187113,0 0,6.49187113 0,14.5 C0,22.5081289 6.49187113,29 14.5,29 C22.5081289,29 29,22.5081289 29,14.5 C28.9834627,6.49873111 22.5012689,0.0165372949 14.5,0 Z M14.5,26.9958535 C7.59873068,26.9958535 2.00414651,21.4012693 2.00414651,14.5 C2.00414651,7.59873068 7.59873068,2.00414651 14.5,2.00414651 C21.4012693,2.00414651 26.9958535,7.59873068 26.9958535,14.5 C26.9793267,21.3944121 21.3944121,26.9793267 14.5,26.9958535 Z M21.3842433,14.5 C21.3842433,15.0534298 20.9355998,15.5020733 20.38217,15.5020733 L10.7672771,15.5020733 L14.0991707,19.4752937 C14.3476014,19.7735516 14.4014326,20.1884568 14.2373401,20.5402369 C14.0732476,20.892017 13.720752,21.1173856 13.3325847,21.1186942 C13.0371058,21.1189353 12.7565825,20.9887578 12.5659986,20.7629578 L7.85124395,15.1463372 L7.85124395,15.1463372 L7.82118176,15.1062543 C7.80276153,15.0823921 7.78602007,15.0572799 7.77107809,15.0310988 L7.74101589,14.9809952 L7.74101589,14.9359019 L7.7109537,14.855736 C7.70056752,14.8383597 7.69216432,14.8198727 7.68590187,14.800622 C7.68590187,14.800622 7.68590187,14.7705598 7.68590187,14.7555287 L7.68590187,14.6703525 C7.68348817,14.6503837 7.68348817,14.6301968 7.68590187,14.6102281 L7.68590187,14.555114 C7.68590187,14.555114 7.68590187,14.555114 7.68590187,14.5150311 C7.68590187,14.4749482 7.68590187,14.4899793 7.68590187,14.4749482 L7.68590187,14.4198341 C7.68348817,14.3998653 7.68348817,14.3796785 7.68590187,14.3597097 L7.68590187,14.2745335 C7.68590187,14.2745335 7.68590187,14.2444713 7.68590187,14.2294402 C7.69216432,14.2101895 7.70056752,14.1917025 7.7109537,14.1743262 L7.74101589,14.0941603 L7.74101589,14.049067 L7.77107809,13.9989634 L7.82118176,13.9238079 L7.85124395,13.8837249 L7.85124395,13.8837249 L12.5659986,8.23704216 C12.790313,7.94452806 13.1571143,7.79878606 13.5210159,7.857583 C13.8849174,7.91637994 14.1871566,8.17022132 14.3079367,8.51849361 C14.4287168,8.8667659 14.3485343,9.25323029 14.0991707,9.52470629 L10.7672771,13.4979267 L20.38217,13.4979267 C20.9355998,13.4979267 21.3842433,13.9465702 21.3842433,14.5 Z" id="Shape"></path>
            </g>
        </g>
    </g>
</svg>