<?xml version="1.0" encoding="UTF-8"?>
<svg width="8px" height="13px" viewBox="0 0 8 13" version="1.1" xmlns="http://www.w3.org/2000/svg" xmlns:xlink="http://www.w3.org/1999/xlink">
    <!-- Generator: Sketch 51.3 (57544) - http://www.bohemiancoding.com/sketch -->
    <title>Fill 1</title>
    <desc>Created with Sketch.</desc>
    <defs></defs>
    <g id="Page-1" stroke="none" stroke-width="1" fill="none" fill-rule="evenodd">
        <g id="specs_integration_2" transform="translate(-1050.000000, -2949.000000)" fill="#1F2E97">
            <g id="suivant" transform="translate(986.000000, 2943.000000)">
                <path d="M63.2619544,9.20462697 L67.9932767,14.0630965 L72.7505029,9.20462697 C73.3777296,8.5479628 74.449528,9.62482975 73.796176,10.2812715 L68.4376269,15.822654 C68.2022785,16.0591153 67.8101788,16.0591153 67.601177,15.822654 L62.1903774,10.2812715 C61.5629293,9.62482975 62.6347276,8.5479628 63.2619544,9.20462697" id="Fill-1" transform="translate(68.000000, 12.500000) scale(-1, 1) rotate(90.000000) translate(-68.000000, -12.500000) "></path>
            </g>
        </g>
    </g>
</svg>