<?xml version="1.0" encoding="UTF-8"?>
<svg width="30px" height="30px" viewBox="0 0 30 30" version="1.1" xmlns="http://www.w3.org/2000/svg" xmlns:xlink="http://www.w3.org/1999/xlink">
    <title>Fill 5</title>
    <g id="Page-1" stroke="none" stroke-width="1" fill="none" fill-rule="evenodd">
        <g id="1_HyperOtlet_accueilV2-XL" transform="translate(-1000.000000, -713.000000)" fill="#FEFEFE">
            <path d="M1015.0004,741.538281 C1013.85077,741.538281 1012.72406,741.39606 1011.63054,741.116358 C1011.7854,741.06184 1011.93869,741.001791 1012.09039,740.9291 C1012.78806,740.59409 1013.46045,740.070242 1014.1281,739.401801 C1015.1276,738.396771 1016.11683,737.05515 1017.07367,735.464642 C1017.26013,735.155706 1017.44502,734.833338 1017.62754,734.504649 C1017.75001,734.541784 1017.87327,734.57813 1017.99415,734.613685 C1020.38505,735.305828 1022.53496,735.667703 1024.28033,735.58632 C1025.12418,735.544444 1025.88111,735.396692 1026.53217,735.097237 C1025.98225,735.98454 1025.32961,736.815744 1024.57347,737.571888 C1022.01586,740.130291 1018.61677,741.538281 1015.0004,741.538281 M1001.4633,727.999605 C1001.4633,726.838921 1001.60947,725.710632 1001.8868,724.634491 C1001.93974,724.786984 1001.99979,724.938687 1002.0709,725.089599 C1002.4067,725.786484 1002.92976,726.460455 1003.59899,727.128105 C1004.60402,728.126024 1005.94406,729.114462 1007.53536,730.071295 C1007.62543,730.127393 1007.72025,730.181912 1007.81269,730.23564 C1007.95649,729.76868 1008.11214,729.293029 1008.27807,728.812637 C1006.49556,727.738866 1005.07572,726.635861 1004.1979,725.63004 C1003.70882,725.073007 1003.39277,724.551529 1003.25134,724.113013 C1003.17865,723.89336 1003.14704,723.697411 1003.1502,723.518844 C1003.15257,723.341068 1003.18576,723.179093 1003.25529,723.014749 C1003.34931,722.796676 1003.48205,722.625221 1003.68432,722.466407 C1003.86052,722.328926 1004.09281,722.206458 1004.38674,722.109273 C1004.89873,721.937028 1005.59404,721.850115 1006.42445,721.867497 C1007.67047,721.891201 1009.21515,722.144039 1010.92813,722.603097 C1011.17069,722.667097 1011.41879,722.738998 1011.66847,722.811688 C1011.16121,723.804077 1010.66818,724.858885 1010.19964,725.96268 C1009.46246,727.70015 1008.84853,729.398904 1008.38711,730.991783 C1007.69496,733.385051 1007.3323,735.533382 1007.41526,737.278754 C1007.45714,738.127341 1007.60489,738.883484 1007.90513,739.533751 C1003.93558,737.094656 1001.4633,732.758487 1001.4633,727.999605 M1015.0004,714.461719 C1016.15002,714.461719 1017.27752,714.60315 1018.37183,714.885222 C1018.21697,714.93816 1018.06368,714.998209 1017.91119,715.0709 C1017.21273,715.40749 1016.54192,715.930549 1015.87427,716.598989 C1014.87398,717.604019 1013.88633,718.94485 1012.92791,720.536148 C1012.74145,720.845084 1012.55735,721.167452 1012.37246,721.496142 C1012.25157,721.459006 1012.12832,721.42108 1012.00822,721.386315 C1009.61574,720.693381 1007.46662,720.331507 1005.72204,720.41447 C1004.88056,720.456346 1004.12916,720.602518 1003.48126,720.898022 C1005.86979,717.038294 1010.1388,714.461719 1015.0004,714.461719 M1020.78959,727.527904 C1020.76984,727.516843 1020.75088,727.504201 1020.73033,727.493139 C1020.3329,727.265585 1019.91809,727.039611 1019.49064,726.815218 C1019.18328,727.678817 1018.838,728.56533 1018.45637,729.463694 L1018.45637,729.465274 L1018.45479,729.466855 C1017.96492,730.623588 1017.44739,731.721062 1016.91722,732.742685 C1015.82607,732.37607 1014.69146,731.945456 1013.53631,731.454792 L1013.53473,731.454002 L1013.53236,731.454002 C1012.63241,731.072375 1011.7696,730.674155 1010.94788,730.266454 C1010.78748,730.749216 1010.64052,731.220127 1010.50936,731.679976 C1011.29395,732.065553 1012.11172,732.439279 1012.9611,732.799573 L1012.96347,732.800363 L1012.99033,732.812215 L1012.99349,732.813795 C1014.08702,733.276805 1015.16316,733.689246 1016.2077,734.04796 C1016.19663,734.068503 1016.18557,734.088256 1016.17372,734.108799 C1014.98933,736.179699 1013.75043,737.826306 1012.63162,738.802102 C1012.07459,739.291185 1011.55232,739.608022 1011.11459,739.749454 C1010.89573,739.821354 1010.6982,739.852169 1010.52042,739.850646 C1010.34107,739.847428 1010.17909,739.814243 1010.01475,739.745503 C1009.79747,739.651479 1009.62522,739.517949 1009.4672,739.315679 C1009.33051,739.140272 1009.20804,738.907978 1009.11085,738.614844 C1008.93861,738.101267 1008.8509,737.406753 1008.8675,736.577129 C1008.89199,735.330322 1009.14562,733.784851 1009.60389,732.072665 C1010.06137,730.359688 1010.7219,728.476046 1011.54679,726.534726 C1012.03666,725.377202 1012.5534,724.278148 1013.08436,723.257315 C1014.17077,723.62156 1015.30064,724.050594 1016.45184,724.538887 L1016.455,724.540467 L1016.47634,724.549159 C1018.16324,725.265796 1019.73241,726.037741 1021.11038,726.82865 C1023.18128,728.013037 1024.82789,729.251152 1025.80289,730.36917 C1026.29198,730.926203 1026.60802,731.449261 1026.75103,731.886197 C1026.82214,732.10585 1026.85375,732.303379 1026.85223,732.481156 C1026.84901,732.660513 1026.81661,732.821697 1026.74708,732.986041 C1026.65306,733.203324 1026.51953,733.37557 1026.31647,733.532013 C1026.14027,733.671074 1025.90877,733.792752 1025.61563,733.889937 C1025.10285,734.061392 1024.40754,734.149885 1023.57713,734.133293 C1022.33111,734.109589 1020.78643,733.855171 1019.07424,733.397693 C1018.8301,733.332113 1018.582,733.261002 1018.33232,733.189102 C1018.83879,732.196713 1019.33103,731.142695 1019.80115,730.03811 L1019.80273,730.03574 L1019.80273,730.034159 L1019.80273,730.033369 L1019.8051,730.029419 C1020.16382,729.182412 1020.49251,728.348047 1020.78959,727.527904 M1028.53907,727.999605 C1028.53907,729.152387 1028.39448,730.282257 1028.11715,731.37104 C1028.06342,731.216176 1028.00337,731.062103 1027.93068,730.911191 C1027.5933,730.213516 1027.07261,729.540336 1026.40417,728.874266 C1025.39835,727.874766 1024.05752,726.886328 1022.4678,725.927915 C1020.8765,724.970292 1019.03553,724.047433 1017.04048,723.200427 L1017.03811,723.199637 L1017.03653,723.198846 L1017.03258,723.196476 C1015.93036,722.728726 1014.84632,722.313124 1013.79309,721.95283 C1013.80495,721.932287 1013.81601,721.910954 1013.82707,721.891991 C1015.01304,719.820301 1016.25194,718.174484 1017.36996,717.197898 C1017.92778,716.708815 1018.44926,716.392768 1018.88778,716.249756 C1019.10743,716.177856 1019.30338,716.147041 1019.48195,716.149285 C1019.65972,716.151782 1019.82249,716.184967 1019.98683,716.254497 C1020.20411,716.347731 1020.37557,716.481261 1020.53438,716.683531 C1020.67186,716.859728 1020.79354,717.092813 1020.89073,717.385946 C1021.06297,717.898733 1021.15068,718.593247 1021.13329,719.423661 C1021.11038,720.667308 1020.85754,722.207248 1020.40085,723.914694 C1020.85438,724.145408 1021.29527,724.378493 1021.72272,724.615528 C1022.34217,722.381864 1022.66454,720.369433 1022.58553,718.719666 C1022.54444,717.87424 1022.3959,717.116516 1022.09566,716.466249 C1026.06521,718.904554 1028.53907,723.241513 1028.53907,727.999605 M1030,727.999605 C1030,721.966262 1026.41286,716.54368 1020.85754,714.186758 C1019.00076,713.3998 1017.03179,713 1015.0004,713 C1006.72944,713 1000,719.727857 1000,727.999605 C1000,734.033738 1003.58951,739.45553 1009.14404,741.814033 L1009.14483,741.814823 C1010.99924,742.60178 1012.96979,743 1015.0004,743 C1019.00787,743 1022.77437,741.441097 1025.60773,738.606943 C1028.4411,735.772788 1030,732.007085 1030,727.999605" id="Fill-5"></path>
        </g>
    </g>
</svg>