<?xml version="1.0" encoding="UTF-8"?>
<svg width="18px" height="20px" viewBox="0 0 18 20" version="1.1" xmlns="http://www.w3.org/2000/svg" xmlns:xlink="http://www.w3.org/1999/xlink">
    <title>Group 5</title>
    <defs>
        <filter id="filter-1">
            <feColorMatrix in="SourceGraphic" type="matrix" values="0 0 0 0 0.274510 0 0 0 0 0.447059 0 0 0 0 0.470588 0 0 0 1.000000 0" color-interpolation-filters="sRGB"></feColorMatrix>
        </filter>
        <polygon id="path-2" points="0 0.168583333 16.4097222 0.168583333 16.4097222 19.074 0 19.074"></polygon>
    </defs>
    <g id="Page-1" stroke="none" stroke-width="1" fill="none" fill-rule="evenodd">
        <g id="Group-5" transform="translate(-82.000000, -6.000000)" filter="url(#filter-1)">
            <g transform="translate(82.500000, 6.000000)">
                <polygon id="Fill-1" fill="#000000" points="12.2383756 18.616513 15.9375756 14.843329 12.2383756 14.843329"></polygon>
                <g id="Group-4" transform="translate(0.000000, 0.024083)">
                    <mask id="mask-3" fill="white">
                        <use xlink:href="#path-2"></use>
                    </mask>
                    <g id="Clip-3"></g>
                    <path d="M11.05782,6.67108333 L5.31238667,6.67108333 C4.87964222,6.67108333 4.52547556,6.30983333 4.52547556,5.86824133 C4.52547556,5.426842 4.87964222,5.065592 5.31238667,5.065592 L11.0972978,5.065592 C11.5300422,5.065592 11.8842089,5.426842 11.8842089,5.86824133 C11.8842089,6.30983333 11.4907533,6.67108333 11.05782,6.67108333 M11.05782,10.7251753 L5.31238667,10.7251753 C4.87964222,10.7251753 4.52547556,10.3639253 4.52547556,9.92233333 C4.52547556,9.48074133 4.87964222,9.11949133 5.31238667,9.11949133 L11.0972978,9.11949133 C11.5300422,9.11949133 11.8842089,9.48074133 11.8842089,9.92233333 C11.8842089,10.3639253 11.4907533,10.7251753 11.05782,10.7251753 M15.5834089,0.168583333 L0.786986667,0.168583333 C0.354053333,0.168583333 -0.000113333333,0.529833333 -0.000113333333,0.971425333 L-0.000113333333,18.271158 C-0.000113333333,18.71275 0.354053333,19.074 0.786986667,19.074 L10.7036533,19.074 L10.7036533,14.0165 C10.7036533,13.574908 11.05782,13.213658 11.4907533,13.213658 L16.4097978,13.213658 L16.4097978,0.971425333 C16.37032,0.529833333 16.0161533,0.168583333 15.5834089,0.168583333" id="Fill-2" fill="#000000" mask="url(#mask-3)"></path>
                </g>
            </g>
        </g>
    </g>
</svg>