<?xml version="1.0" encoding="UTF-8"?>
<svg width="85px" height="85px" viewBox="0 0 85 85" version="1.1" xmlns="http://www.w3.org/2000/svg" xmlns:xlink="http://www.w3.org/1999/xlink">
    <title>panier</title>
    <defs>
        <filter x="-23.7%" y="-22.0%" width="154.2%" height="154.2%" filterUnits="objectBoundingBox" id="filter-1">
            <feOffset dx="0" dy="2" in="SourceAlpha" result="shadowOffsetOuter1"></feOffset>
            <feGaussianBlur stdDeviation="2" in="shadowOffsetOuter1" result="shadowBlurOuter1"></feGaussianBlur>
            <feColorMatrix values="0 0 0 0 0   0 0 0 0 0   0 0 0 0 0  0 0 0 0.5 0" type="matrix" in="shadowBlurOuter1" result="shadowMatrixOuter1"></feColorMatrix>
            <feMerge>
                <feMergeNode in="shadowMatrixOuter1"></feMergeNode>
                <feMergeNode in="SourceGraphic"></feMergeNode>
            </feMerge>
        </filter>
        <circle id="path-2" cx="29.5" cy="29.5" r="29.5"></circle>
        <filter x="-9.3%" y="-7.6%" width="125.4%" height="125.4%" filterUnits="objectBoundingBox" id="filter-3">
            <feOffset dx="2" dy="3" in="SourceAlpha" result="shadowOffsetOuter1"></feOffset>
            <feGaussianBlur stdDeviation="2" in="shadowOffsetOuter1" result="shadowBlurOuter1"></feGaussianBlur>
            <feColorMatrix values="0 0 0 0 0.775362319   0 0 0 0 0.756451043   0 0 0 0 0.756451043  0 0 0 0.195652174 0" type="matrix" in="shadowBlurOuter1"></feColorMatrix>
        </filter>
        <polygon id="path-4" points="0 0 24.64 0 24.64 22 0 22"></polygon>
    </defs>
    <g id="Page-1" stroke="none" stroke-width="1" fill="none" fill-rule="evenodd">
        <g id="specs_integration_general" transform="translate(-911.000000, -2923.000000)">
            <g id="panier" filter="url(#filter-1)" transform="translate(922.000000, 2933.000000)">
                <g id="Oval-2" opacity="0.905975632" fill-rule="nonzero">
                    <use fill="black" fill-opacity="1" filter="url(#filter-3)" xlink:href="#path-2"></use>
                    <use fill="#F7A448" xlink:href="#path-2"></use>
                </g>
                <g id="Group-3" transform="translate(18.000000, 13.000000)">
                    <mask id="mask-5" fill="white">
                        <use xlink:href="#path-4"></use>
                    </mask>
                    <g id="Clip-2"></g>
                    <path d="M17.4532512,17.3830843 C17.4532512,17.9474561 16.9912512,18.4091477 16.4267488,18.4091477 C15.862,18.4091477 15.4,17.9474561 15.4,17.3830843 L15.4,13.6895518 C15.4,13.1254263 15.862,12.6637347 16.4267488,12.6637347 C16.9912512,12.6637347 17.4532512,13.1254263 17.4532512,13.6895518 L17.4532512,17.3830843 Z M13.3467488,17.3830843 C13.3467488,17.9474561 12.8847488,18.4091477 12.32,18.4091477 C11.7552512,18.4091477 11.2932512,17.9474561 11.2932512,17.3830843 L11.2932512,13.6895518 C11.2932512,13.1254263 11.7552512,12.6637347 12.32,12.6637347 C12.8847488,12.6637347 13.3467488,13.1254263 13.3467488,13.6895518 L13.3467488,17.3830843 Z M9.24,17.3830843 C9.24,17.9474561 8.778,18.4091477 8.2132512,18.4091477 C7.6485024,18.4091477 7.1865024,17.9474561 7.1865024,17.3830843 L7.1865024,13.6895518 C7.1865024,13.1254263 7.6485024,12.6637347 8.2132512,12.6637347 C8.778,12.6637347 9.24,13.1254263 9.24,13.6895518 L9.24,17.3830843 Z M23.2027488,7.17465286 L21.406,7.17465286 L16.016,0.351713321 C15.708,-0.0585150263 15.092,-0.109978246 14.6812512,0.197816132 C14.2707488,0.50561051 14.2192512,1.06998228 14.5272512,1.48045686 L18.9932512,7.17465286 L5.544,7.17465286 L10.2152512,1.48045686 C10.5232512,1.06998228 10.472,0.50561051 10.1125024,0.197816132 C9.702,-0.109978246 9.086,-0.0585150263 8.778,0.351713321 L3.1312512,7.17465286 L1.4372512,7.17465286 C0.6672512,7.17465286 0.0512512,7.79024162 0,8.55972756 L0,9.4831107 C0,10.2011334 0.5645024,10.7655052 1.232,10.8681854 L3.7985024,20.3585941 C3.9012512,20.7688225 4.312,22 5.4412512,22 L19.1472512,22 C20.02,22 20.5847488,21.2305141 20.79,20.4610281 L23.3567488,10.8681854 C24.0752512,10.8167222 24.64,10.2011334 24.64,9.4831107 L24.64,8.55972756 C24.64,7.79024162 23.9727488,7.17465286 23.2027488,7.17465286 L23.2027488,7.17465286 Z" id="Fill-1" fill="#384651" mask="url(#mask-5)"></path>
                </g>
            </g>
        </g>
    </g>
</svg>