<?xml version="1.0" encoding="UTF-8"?>
<svg width="25px" height="32px" viewBox="0 0 25 32" version="1.1" xmlns="http://www.w3.org/2000/svg" xmlns:xlink="http://www.w3.org/1999/xlink">
    <title>panier</title>
    <defs>
        <polygon id="path-1" points="0 0 24 0 24 31.7142857 0 31.7142857"></polygon>
    </defs>
    <g id="Page-1" stroke="none" stroke-width="1" fill="none" fill-rule="evenodd">
        <g id="fiches-icones_ED2" transform="translate(-117.000000, -3.000000)">
            <g id="panier" transform="translate(117.500000, 3.000000)">
                <mask id="mask-2" fill="white">
                    <use xlink:href="#path-1"></use>
                </mask>
                <g id="Clip-2"></g>
                <path d="M14.9599296,17.4712151 C14.9599296,17.9549624 14.5639296,18.350698 14.0800704,18.350698 C13.596,18.350698 13.2,17.9549624 13.2,17.4712151 L13.2,14.3053301 C13.2,13.8217939 13.596,13.4260583 14.0800704,13.4260583 C14.5639296,13.4260583 14.9599296,13.8217939 14.9599296,14.3053301 L14.9599296,17.4712151 Z M11.4400704,17.4712151 C11.4400704,17.9549624 11.0440704,18.350698 10.56,18.350698 C10.0759296,18.350698 9.6799296,17.9549624 9.6799296,17.4712151 L9.6799296,14.3053301 C9.6799296,13.8217939 10.0759296,13.4260583 10.56,13.4260583 C11.0440704,13.4260583 11.4400704,13.8217939 11.4400704,14.3053301 L11.4400704,17.4712151 Z M7.92,17.4712151 C7.92,17.9549624 7.524,18.350698 7.0399296,18.350698 C6.5558592,18.350698 6.1598592,17.9549624 6.1598592,17.4712151 L6.1598592,14.3053301 C6.1598592,13.8217939 6.5558592,13.4260583 7.0399296,13.4260583 C7.524,13.4260583 7.92,13.8217939 7.92,14.3053301 L7.92,17.4712151 Z M19.8880704,8.72113102 L18.348,8.72113102 L13.728,2.87289713 C13.464,2.52127283 12.936,2.4771615 12.5839296,2.74098526 C12.2320704,3.00480901 12.1879296,3.48855624 12.4519296,3.8403916 L16.2799296,8.72113102 L4.752,8.72113102 L8.7559296,3.8403916 C9.0199296,3.48855624 8.976,3.00480901 8.6678592,2.74098526 C8.316,2.4771615 7.788,2.52127283 7.524,2.87289713 L2.6839296,8.72113102 L1.2319296,8.72113102 C0.5719296,8.72113102 0.0439296,9.24877853 0,9.90833791 L0,10.6998092 C0,11.3152572 0.4838592,11.7990045 1.056,11.8870161 L3.2558592,20.0216521 C3.3439296,20.3732764 3.696,21.4285714 4.6639296,21.4285714 L16.4119296,21.4285714 C17.16,21.4285714 17.6440704,20.769012 17.82,20.1094527 L20.0200704,11.8870161 C20.6359296,11.8429047 21.12,11.3152572 21.12,10.6998092 L21.12,9.90833791 C21.12,9.24877853 20.5480704,8.72113102 19.8880704,8.72113102 L19.8880704,8.72113102 Z" id="Fill-1" fill="#467278" mask="url(#mask-2)"></path>
            </g>
        </g>
    </g>
</svg>