<?xml version="1.0" encoding="UTF-8"?>
<svg width="58px" height="28px" viewBox="0 0 58 28" version="1.1" xmlns="http://www.w3.org/2000/svg" xmlns:xlink="http://www.w3.org/1999/xlink">
    <title>Group 12</title>
    <g id="Page-1" stroke="none" stroke-width="1" fill="none" fill-rule="evenodd">
        <g id="6_TD_notice_V2_F" transform="translate(-675.000000, -555.000000)">
            <g id="associe-a" transform="translate(662.000000, 546.000000)">
                <g id="Group-12" transform="translate(14.000000, 10.000000)">
                    <g id="Group-21" transform="translate(0.000000, 0.000000)">
                        <rect id="Rectangle" stroke="#F7A448" stroke-width="2" x="0" y="4.81481481" width="21.1851852" height="21.1851852" rx="3"></rect>
                        <rect id="Rectangle" stroke="#F7A448" stroke-width="2" fill="#222b32" x="5.77777778" y="0" width="21.1851852" height="21.1851852" rx="3"></rect>
                        <path d="M17.6331776,4.90794817 L17.6331776,8.75037691 L21.4212083,8.75037691 C22.1572819,8.75037691 22.7567937,9.34988872 22.7567937,10.1131613 C22.7567937,10.8486682 22.1572819,11.4487467 21.4212083,11.4487467 L17.6331776,11.4487467 L17.6331776,15.2095784 C17.6331776,15.9456519 17.0336658,16.5451638 16.2703932,16.5451638 C15.5343196,16.5451638 14.9353744,15.9456519 14.9353744,15.2095784 L14.9353744,11.4487467 L11.1195781,11.4487467 C10.3568721,11.4487467 9.75679367,10.8486682 9.75679367,10.1131613 C9.75679367,9.34988872 10.3568721,8.75037691 11.1195781,8.75037691 L14.9353744,8.75037691 L14.9353744,4.90794817 C14.9353744,4.14467557 15.5343196,3.54516376 16.2703932,3.54516376 C17.0336658,3.54516376 17.6331776,4.14467557 17.6331776,4.90794817" id="Fill-18" fill="#F7A448"></path>
                    </g>
                    <g id="Group-22" transform="translate(10.000000, 0.000000)">
                        <path d="M47.3842433,12.5 C47.3842433,13.0534298 46.9355998,13.5020733 46.38217,13.5020733 L36.7672771,13.5020733 L40.0991707,17.4752937 C40.3476014,17.7735516 40.4014326,18.1884568 40.2373401,18.5402369 C40.0732476,18.892017 39.720752,19.1173856 39.3325847,19.1186949 C39.0371058,19.1189353 38.7565825,18.9887578 38.5659986,18.7629578 L33.851244,13.1463372 L33.8211818,13.1062543 C33.8027615,13.0823921 33.7860201,13.0572799 33.7710781,13.0310988 L33.7410159,12.9809952 L33.7410159,12.9359019 L33.7109537,12.855736 C33.7005675,12.8383597 33.6921643,12.8198727 33.6859019,12.800622 C33.6859019,12.800622 33.6859019,12.7705598 33.6859019,12.7555287 L33.6859019,12.6703525 C33.6834882,12.6503837 33.6834882,12.6301968 33.6859019,12.6102281 L33.6859019,12.555114 C33.6859019,12.555114 33.6859019,12.555114 33.6859019,12.5150311 C33.6859019,12.4749482 33.6859019,12.4899793 33.6859019,12.4749482 L33.6859019,12.4198341 C33.6834882,12.3998653 33.6834882,12.3796785 33.6859019,12.3597097 L33.6859019,12.2745335 C33.6859019,12.2745335 33.6859019,12.2444713 33.6859019,12.2294402 C33.6921643,12.2101895 33.7005675,12.1917025 33.7109537,12.1743262 L33.7410159,12.0941603 L33.7410159,12.049067 L33.7710781,11.9989634 L33.8211818,11.9238079 L33.851244,11.8837249 L38.5659986,6.23704216 C38.790313,5.94452806 39.1571143,5.79878606 39.5210159,5.857583 C39.8849174,5.91637994 40.1871566,6.17022132 40.3079367,6.51849361 C40.4287168,6.8667659 40.3485343,7.25323029 40.0991707,7.52470629 L36.7672771,11.4979267 L46.38217,11.4979267 C46.9355998,11.4979267 47.3842433,11.9465702 47.3842433,12.5 Z" id="Path" fill="#F7A448" fill-rule="nonzero"></path>
                    </g>
                </g>
            </g>
        </g>
    </g>
</svg>