<?xml version="1.0" encoding="UTF-8"?>
<svg width="24px" height="22px" viewBox="0 0 24 22" version="1.1" xmlns="http://www.w3.org/2000/svg" xmlns:xlink="http://www.w3.org/1999/xlink">
    <title>Fill 9</title>
    <g id="Page-1" stroke="none" stroke-width="1" fill="none" fill-rule="evenodd">
        <g id="5_HyperOtlet_EncycloV3_filtresL" transform="translate(-134.000000, -545.000000)" fill="#333333">
            <g id="onglets" transform="translate(87.000000, 382.000000)">
                <g id="oeuvres" transform="translate(7.000000, 143.000000)">
                    <g id="Fill-9" transform="translate(40.000000, 20.000000)">
                        <path d="M11.44,0 L11.44,9.0345723 C12.4667256,8.50964937 13.6300492,8.21333333 14.8622615,8.21333333 C17.7872028,8.21333333 20.3233473,9.88223435 21.5699508,12.32 L23.76,12.32 L23.76,0 L11.44,0 Z M14.9602359,9.68 C11.5631528,9.68 8.8,12.4430999 8.8,15.840118 C8.8,19.2366642 11.5631528,22 14.9602359,22 C18.3568472,22 21.12,19.2366642 21.12,15.840118 C21.1202359,12.4430999 18.3570831,9.68 14.9602359,9.68 L14.9602359,9.68 Z M7.44093743,15.84 L1.01785247e-12,15.84 L6.70108812,6.16 L9.68,10.4633265 C7.36239095,12.4787068 7.33946123,14.8654026 7.44093743,15.84 L7.44093743,15.84 Z" id="Fill-1"></path>
                    </g>
                </g>
            </g>
        </g>
    </g>
</svg>