<?xml version="1.0" encoding="UTF-8"?>
<svg width="34px" height="34px" viewBox="0 0 34 34" version="1.1" xmlns="http://www.w3.org/2000/svg" xmlns:xlink="http://www.w3.org/1999/xlink">
    <title>Group 7</title>
    <defs>
        <polygon id="path-1" points="0 0 33.2275523 0 33.2275523 33.3325248 0 33.3325248"></polygon>
    </defs>
    <g id="Page-1" stroke="none" stroke-width="1" fill="none" fill-rule="evenodd">
        <g id="2_HyperOtlet_Encyclo_interface_XL" transform="translate(-925.000000, -764.000000)">
            <g id="Group-20" transform="translate(68.000000, 749.000000)">
                <g id="Group-15" transform="translate(47.000000, 0.000000)">
                    <g id="Group-14" transform="translate(770.000000, 7.000000)">
                        <g id="Group-7" transform="translate(40.000000, 8.000000)">
                            <mask id="mask-2" fill="white">
                                <use xlink:href="#path-1"></use>
                            </mask>
                            <path d="M26.6792248,17.257044 C26.6792248,17.4788905 26.5053337,17.7092553 26.292308,17.7692538 L24.3702765,18.1818364 C24.1694342,18.9299664 23.8733395,19.6384677 23.4963909,20.2947481 L24.5655809,21.9513746 C24.6737552,22.1443329 24.6346205,22.4309926 24.4784508,22.5880258 L22.5172846,24.5553855 C22.3607458,24.7120484 22.0753577,24.7520474 21.8822685,24.6431612 L20.2312265,23.5705946 C19.5770122,23.9487336 18.8707413,24.2457634 18.1245974,24.44724 L17.7136828,26.3753414 C17.6542424,26.5890399 17.4242336,26.7634801 17.2030855,26.7634801 L14.4296894,26.7634801 C14.2085414,26.7634801 13.9785326,26.5886695 13.9190921,26.3753414 L13.5081776,24.44724 C12.7620337,24.2457634 12.0557628,23.9487336 11.4015485,23.5705946 L9.75050649,24.6431612 C9.55778647,24.751677 9.2720292,24.7120484 9.11585953,24.5553855 L7.15432418,22.5880258 C6.99815452,22.431363 6.9590198,22.1447032 7.06719406,21.9513746 L8.13638404,20.2947481 C7.7594355,19.6384677 7.46334076,18.9299664 7.26249845,18.1818364 L5.34046701,17.7692538 C5.12744124,17.7092553 4.953181,17.4785201 4.953181,17.257044 L4.953181,14.4748893 C4.953181,14.2530428 5.12744124,14.022678 5.34046701,13.9626795 L7.26249845,13.5504673 C7.46334076,12.8023373 7.7594355,12.0938359 8.13638404,11.4375556 L7.06719406,9.78129943 C6.9590198,9.58760043 6.99815452,9.30131108 7.15432418,9.14427785 L9.11585953,7.17691816 C9.2720292,7.0202553 9.55741727,6.98062663 9.75050649,7.08914251 L11.4015485,8.16170909 C12.0557628,7.78357011 12.7624028,7.48654028 13.5081776,7.28506369 L13.9190921,5.35696231 C13.9785326,5.14326379 14.2085414,4.96882357 14.4296894,4.96882357 L17.2030855,4.96882357 C17.4242336,4.96882357 17.6542424,5.14363415 17.7136828,5.35696231 L18.1245974,7.28506369 C18.8711105,7.48654028 19.5770122,7.78357011 20.2312265,8.16170909 L21.8822685,7.08914251 C22.0749885,6.98062663 22.3607458,7.0202553 22.5172846,7.17691816 L24.4784508,9.14427785 C24.6346205,9.30094072 24.6737552,9.58760043 24.5655809,9.78092907 L23.4963909,11.4375556 C23.8733395,12.0938359 24.1694342,12.8023373 24.3702765,13.5504673 L26.292308,13.9626795 C26.5053337,14.022678 26.6792248,14.2534132 26.6792248,14.4748893 L26.6792248,17.257044 M 100,100 Z M11.88 16 a4.127 4.127 0 1 1 0 0.0001 z"  fill-rule="evenodd" fill="#384651" ></path>
                        </g>
                    </g>
                </g>
            </g>
        </g>
    </g>
</svg>