<?xml version="1.0" encoding="UTF-8"?>
<svg width="26px" height="25px" viewBox="0 0 26 25" version="1.1" xmlns="http://www.w3.org/2000/svg" xmlns:xlink="http://www.w3.org/1999/xlink">
    <title>Group 12</title>
    <defs>
        <polygon id="path-1" points="1.69109447 0.114596934 12.8958586 0.114596934 12.8958586 10.1653952 1.69109447 10.1653952"></polygon>
    </defs>
    <g id="Page-1" stroke="none" stroke-width="1" fill="none" fill-rule="evenodd">
        <g id="2_HyperOtlet_Encyclo_interface_XL" transform="translate(-779.000000, -767.000000)">
            <g id="Group-20" transform="translate(68.000000, 749.000000)">
                <g id="Group-15" transform="translate(47.000000, 0.000000)">
                    <g id="Group-14" transform="translate(625.000000, 7.000000)">
                        <g id="Group-12" transform="translate(39.000000, 11.000000)">
                            <path d="M2.48888593,10.1653952 C2.94020873,10.1653952 3.31188632,9.78789939 3.31188632,9.32951166 L3.31188632,6.92971704 C3.31188632,5.12313008 4.77204831,3.64011094 6.55079109,3.64011094 L8.30298548,3.64011094 L8.30298548,4.79956227 C8.30298548,5.04223813 8.43572748,5.25795001 8.64811467,5.36580594 C8.75430827,5.41973391 8.86050187,5.4466979 8.96669547,5.4466979 C9.07288907,5.4466979 9.20563107,5.41973391 9.31182467,5.33884196 L12.5772778,3.34350711 C12.7631166,3.23565117 12.8958586,3.0199393 12.8958586,2.77726344 C12.8958586,2.53458758 12.7631166,2.3188757 12.5772778,2.21101976 L9.31182467,0.215684912 C9.09943747,0.0808649894 8.86050187,0.0808649894 8.64811467,0.215684912 C8.43572748,0.350504834 8.32953388,0.539252725 8.32953388,0.781928585 L8.32953388,1.99530789 L6.57733949,1.99530789 C3.89595112,1.99530789 1.69243394,4.20635461 1.69243394,6.95668103 L1.69243394,9.35647564 C1.66588554,9.78789939 2.03756313,10.1653952 2.48888593,10.1653952" id="Fill-1" fill="#384651"></path>
                            <path d="M9.34601341,21.8081915 L6.91208454,21.8081915 C5.079801,21.8081915 3.57568765,20.3782314 3.57568765,18.63628 L3.57568765,16.9203279 L4.75163081,16.9203279 C4.99775845,16.9203279 5.21653858,16.7903315 5.32592864,16.5820773 C5.4353187,16.3743431 5.4353187,16.1403496 5.32592864,15.9320954 L3.30221249,12.7344447 C3.05608485,12.3444555 2.39974448,12.3444555 2.15361684,12.7344447 L0.102553183,15.9320954 C-0.0341843943,16.1403496 -0.0341843943,16.3743431 0.102553183,16.5820773 C0.211943245,16.7903315 0.458070884,16.9203279 0.676851008,16.9203279 L1.9074892,16.9203279 L1.9074892,18.63628 C1.9074892,21.2619467 4.14998547,23.4201465 6.93943205,23.4201465 L9.37336093,23.4201465 C9.83826869,23.4201465 10.2211339,23.0561567 10.2211339,22.614169 C10.2211339,22.1719213 9.81092118,21.8081915 9.34601341,21.8081915" id="Fill-4" fill="#384651"></path>
                            <path d="M16.829834,24.8839057 C17.0507568,24.7810232 17.1888336,24.5486997 17.1888336,24.3424191 L17.1888336,23.1820908 L19.011171,23.1820908 C21.8005982,23.1820908 24.0926728,21.0677147 24.0926728,18.4376371 L24.0926728,16.1430234 C24.0926728,15.7302043 23.7057816,15.3694711 23.2363206,15.3694711 C22.7671357,15.3694711 22.3805207,15.7302043 22.3805207,16.1685506 L22.3805207,18.46368 C22.3805207,20.1910222 20.861676,21.6092012 19.011171,21.6092012 L17.1888336,21.6092012 L17.1888336,20.500443 C17.1888336,20.2686352 17.0507568,20.0620968 16.829834,19.9589565 C16.608635,19.8558162 16.3603729,19.8558162 16.13945,19.9589565 L12.7427612,21.867052 C12.5494537,21.9701923 12.4113769,22.1764729 12.4113769,22.4085385 C12.4113769,22.6406042 12.5494537,22.8471426 12.7427612,22.9500251 L16.13945,24.8581206" id="Fill-6" fill="#384651"></path>
                            <path d="M25.4766019,9.02132416 C25.3669273,8.81369875 25.1201594,8.68393287 24.900536,8.68393287 L23.6666967,8.68393287 L23.6666967,6.97102322 C23.6666967,4.34975239 21.4186415,2.19563873 18.621939,2.19563873 L16.1816791,2.19563873 C15.7152878,2.19563873 15.3317009,2.55898321 15.3317009,3.00018721 C15.3317009,3.44139121 15.7152878,3.80473568 16.1816791,3.80473568 L18.621939,3.80473568 C20.4589887,3.80473568 21.9670145,5.23216039 21.9670145,6.97102322 L21.9670145,8.68393287 L20.7877383,8.68393287 C20.5412446,8.68393287 20.3218954,8.81369875 20.2122208,9.02132416 C20.102272,9.22894957 20.102272,9.46252816 20.2122208,9.67015358 L22.241201,12.8623943 C22.3508756,13.0440665 22.5699506,13.1738324 22.8169927,13.1738324 C23.0637605,13.1738324 23.2831098,13.0440665 23.3925102,12.8623943 L25.4217646,9.67015358 C25.5860023,9.46252816 25.5860023,9.22894957 25.4766019,9.02132416" id="Fill-8" fill="#384651"></path>
                            <path d="M10.616343,13.1725397 C10.616343,11.757447 11.7567175,10.6417009 13.1414579,10.6417009 C14.5533501,10.6417009 15.6665727,11.7846603 15.6665727,13.1725397 C15.6665727,14.560419 14.5259268,15.7033784 13.1414579,15.7033784 C11.7295657,15.7033784 10.616343,14.5876323 10.616343,13.1725397 M14.3632876,19.32275 L14.5259268,17.6899508 C14.5259268,17.635252 14.5805018,17.5810975 14.6348054,17.5538842 C14.8248678,17.4991854 14.9877784,17.4178176 15.1778408,17.3361776 C15.2321444,17.3089643 15.2864479,17.3089643 15.3404799,17.3631188 L16.6168848,18.3974971 C16.8338274,18.560777 17.1327684,18.560777 17.2956791,18.3702838 L18.3002947,17.3631188 C18.4903571,17.1728977 18.4903571,16.8735512 18.3271749,16.6827858 L17.2956791,15.4040319 C17.2685273,15.3496053 17.241104,15.2951786 17.2685273,15.240752 C17.3499826,15.0774721 17.4314379,14.8869788 17.4857415,14.6964856 C17.5126217,14.6417868 17.5671968,14.5876323 17.6215003,14.5876323 L19.2506067,14.4243524 C19.5221244,14.3971391 19.7121868,14.1794325 19.7121868,13.9072993 L19.7121868,12.4922067 C19.7121868,12.2200735 19.5221244,12.0023669 19.2506067,11.9751536 L17.6215003,11.8118737 C17.5671968,11.8118737 17.5126217,11.757447 17.4857415,11.7030204 C17.4314379,11.5125271 17.3499826,11.3492472 17.2685273,11.158754 C17.241104,11.1043273 17.241104,11.0499007 17.2956791,10.9954741 L18.3271749,9.71644801 C18.4903571,9.49874145 18.4903571,9.19939493 18.3002947,9.03611501 L17.2956791,8.00200885 C17.1053451,7.81151561 16.8069472,7.81151561 16.6168848,7.97479553 L15.3404799,9.00890169 C15.2864479,9.03611501 15.2321444,9.06332833 15.1778408,9.03611501 C15.0149302,8.95447505 14.8248678,8.87283509 14.6348054,8.81840845 C14.5805018,8.79119513 14.5259268,8.73676849 14.5259268,8.68234185 L14.3632876,7.04954265 C14.3361359,6.77740944 14.1186502,6.5869162 13.8471324,6.5869162 L12.4355118,6.5869162 C12.1639941,6.5869162 11.9467799,6.77740944 11.9196281,7.04954265 L11.7567175,8.68234185 C11.7567175,8.73676849 11.7024139,8.79119513 11.6481104,8.81840845 C11.458048,8.87283509 11.2951374,8.95447505 11.1050749,9.03611501 C11.0507714,9.06332833 10.9964679,9.06332833 10.9421643,9.00890169 L9.666031,7.97479553 C9.44881682,7.81151561 9.15014733,7.81151561 8.98723669,8.00200885 L7.98262111,9.00890169 C7.7925587,9.19939493 7.7925587,9.49874145 7.95546934,9.68923469 L8.98723669,10.9682607 C9.01438846,11.0226874 9.04154024,11.077114 9.01438846,11.1315407 C8.93293315,11.2948206 8.85147783,11.4853138 8.79717428,11.6758071 C8.77002251,11.7302337 8.71571897,11.7846603 8.66141542,11.7846603 L7.03230907,11.9479403 C6.76079135,11.9751536 6.57072894,12.1928601 6.57072894,12.4649933 L6.57072894,13.880086 C6.57072894,14.1522192 6.76079135,14.3696536 7.03230907,14.3971391 L8.66141542,14.560419 C8.71571897,14.560419 8.77002251,14.6148456 8.79717428,14.6692723 C8.85147783,14.8597655 8.93293315,15.0230454 9.01438846,15.2135387 C9.04154024,15.2679653 9.04154024,15.3221198 8.98723669,15.3768186 L7.95546934,16.6558446 C7.7925587,16.8735512 7.7925587,17.1728977 7.98262111,17.3361776 L8.98723669,18.3430705 C9.1772991,18.5335637 9.4759686,18.5335637 9.666031,18.3702838 L10.9421643,17.3361776 C10.9964679,17.3089643 11.0507714,17.281751 11.1050749,17.3089643 C11.2679856,17.3906043 11.458048,17.4722442 11.6481104,17.5266709 C11.7024139,17.5538842 11.7567175,17.6083108 11.7567175,17.6627375 L11.9196281,19.2955367 C11.9467799,19.5676699 12.1639941,19.7581631 12.4355118,19.7581631 L13.8471324,19.7581631 C14.1186502,19.7853764 14.3361359,19.5948832 14.3632876,19.32275" id="Fill-10" fill="#384651"></path>
                            <mask id="mask-2" fill="white">
                                <use xlink:href="#path-1"></use>
                            </mask>
                            <g id="Clip-2"></g>
                        </g>
                    </g>
                </g>
            </g>
        </g>
    </g>
</svg>