<?xml version="1.0" encoding="UTF-8"?>
<svg width="44px" height="44px" viewBox="0 0 44 44" version="1.1" xmlns="http://www.w3.org/2000/svg" xmlns:xlink="http://www.w3.org/1999/xlink">
    <title>Group 3</title>
    <defs>
        <filter id="filter-1">
            <feColorMatrix in="SourceGraphic" type="matrix" values="0 0 0 0 0.968627 0 0 0 0 0.643137 0 0 0 0 0.282353 0 0 0 1.000000 0"></feColorMatrix>
        </filter>
        <filter x="-80.0%" y="-80.0%" width="260.0%" height="260.0%" filterUnits="objectBoundingBox" id="filter-2">
            <feOffset dx="4" dy="2" in="SourceAlpha" result="shadowOffsetOuter1"></feOffset>
            <feGaussianBlur stdDeviation="2" in="shadowOffsetOuter1" result="shadowBlurOuter1"></feGaussianBlur>
            <feColorMatrix values="0 0 0 0 0.129411765   0 0 0 0 0.160784314   0 0 0 0 0.188235294  0 0 0 1 0" type="matrix" in="shadowBlurOuter1" result="shadowMatrixOuter1"></feColorMatrix>
            <feMerge>
                <feMergeNode in="shadowMatrixOuter1"></feMergeNode>
                <feMergeNode in="SourceGraphic"></feMergeNode>
            </feMerge>
        </filter>
        <polygon id="path-3" points="0 0 20 0 20 20 0 20"></polygon>
    </defs>
    <g id="Page-1" stroke="none" stroke-width="1" fill="none" fill-rule="evenodd">
        <g id="Group-3" transform="translate(-665.000000, -488.000000)" filter="url(#filter-1)">
            <g filter="url(#filter-2)" transform="translate(677.000000, 500.000000)">
                <mask id="mask-4" fill="white">
                    <use xlink:href="#path-3"></use>
                </mask>
                <g id="Clip-2"></g>
                <path d="M16.3105529,9.00482326 C16.8930727,9.00482326 17.3544283,9.4659459 17.3544283,10.0484656 C17.3544283,10.6309854 16.8930727,11.092108 16.3105529,11.092108 L3.68944707,11.1165739 C3.10692732,11.1165739 2.64580469,10.6309854 2.64580469,10.0726985 C2.64580469,9.49017872 3.10692732,9.02905609 3.68944707,9.02905609 L16.3105529,9.00482326 Z M17.0631684,2.93683156 C18.8834261,4.75732227 20,7.25726402 20,10.0242328 C20,12.7912016 18.8834261,15.2911434 17.0631684,17.0874013 C15.2426777,18.8834261 12.7669688,20 10,20 C7.2330312,20 4.73308945,18.8834261 2.91283174,17.0631684 C1.09234103,15.2426777 0,12.7669688 0,10 C0,7.2330312 1.11657385,4.73308945 2.93706457,2.91259874 C4.73308945,1.11657385 7.2330312,0 10,0 C12.7669688,0 15.2669105,1.11657385 17.0631684,2.93683156 Z" id="Fill-1" fill="#000000" mask="url(#mask-4)"></path>
            </g>
        </g>
    </g>
</svg>