<?xml version="1.0" encoding="UTF-8"?>
<svg width="20px" height="20px" viewBox="0 0 20 20" version="1.1" xmlns="http://www.w3.org/2000/svg" xmlns:xlink="http://www.w3.org/1999/xlink">
    <!-- Generator: Sketch 51.3 (57544) - http://www.bohemiancoding.com/sketch -->
    <title>Group 3</title>
    <desc>Created with Sketch.</desc>
    <defs>
        <polygon id="path-1" points="0.0004 8e-05 20.0004 8e-05 20.0004 20.00008 0.0004 20.00008"></polygon>
    </defs>
    <g id="Page-1" stroke="none" stroke-width="1" fill="none" fill-rule="evenodd">
        <g id="specs_integration_5" transform="translate(-826.000000, -2712.000000)">
            <g id="Group-3" transform="translate(826.000000, 2712.000000)">
                <mask id="mask-2" fill="white">
                    <use xlink:href="#path-1"></use>
                </mask>
                <g id="Clip-2"></g>
                <path d="M15.4004461,10.7676772 L10.7679972,10.7676772 L10.7679972,15.3998702 C10.7679972,15.8240956 10.4243695,16.1674674 10.0004,16.1674674 C9.57617463,16.1674674 9.23280283,15.8240956 9.23280283,15.3998702 L9.23280283,10.7676772 L4.60035394,10.7676772 C4.17612858,10.7676772 3.83275678,10.4240495 3.83275678,10.00008 C3.83275678,9.5761105 4.17612858,9.23248283 4.60035394,9.23248283 L9.23280283,9.23248283 L9.23280283,4.60003394 C9.23280283,4.17606444 9.57617463,3.83243678 10.0004,3.83243678 C10.4243695,3.83243678 10.7679972,4.17606444 10.7679972,4.60003394 L10.7679972,9.23248283 L15.4004461,9.23248283 C15.8241597,9.23248283 16.1680432,9.5761105 16.1680432,10.00008 C16.1680432,10.4240495 15.8244156,10.7676772 15.4004461,10.7676772 M10.0004,8e-05 C4.47779426,8e-05 0.0004,4.47747426 0.0004,10.00008 C0.0004,15.5226857 4.47779426,20.00008 10.0004,20.00008 C15.5230057,20.00008 20.0004,15.5226857 20.0004,10.00008 C20.0004,4.47747426 15.5230057,8e-05 10.0004,8e-05" id="Fill-1" fill="#F7A448" mask="url(#mask-2)"></path>
            </g>
        </g>
    </g>
</svg>