<?xml version="1.0" encoding="UTF-8"?>
<svg width="24px" height="27px" viewBox="0 0 24 27" version="1.1" xmlns="http://www.w3.org/2000/svg" xmlns:xlink="http://www.w3.org/1999/xlink">
    <title>F99E6532-0809-4B5D-844F-C315A6BC4DE7</title>
    <defs>
        <filter id="filter-1">
            <feColorMatrix in="SourceGraphic" type="matrix" values="0 0 0 0 0.305882 0 0 0 0 0.384314 0 0 0 0 0.450980 0 0 0 1.000000 0"></feColorMatrix>
        </filter>
        <polygon id="path-2" points="0 0 23.0191083 0 23.0191083 26 0 26"></polygon>
    </defs>
    <g id="Page-1" stroke="none" stroke-width="1" fill="none" fill-rule="evenodd">
        <g id="15_rédacteurs_V2_F" transform="translate(-537.000000, -670.000000)">
            <g id="icone" transform="translate(522.000000, 663.000000)" >
                <g transform="translate(15.000000, 7.150000)" id="Group-4">
                    <mask id="mask-3" fill="white">
                        <use xlink:href="#path-2"></use>
                    </mask>
                    <g id="Clip-3"></g>
                    <path d="M3.45207032,22.518135 C2.84502828,22.518135 2.34821299,22.0213197 2.34821299,21.4140127 C2.34821299,20.8067057 2.84502828,20.3098904 3.45207032,20.3098904 L19.566985,20.3098904 C20.174027,20.3098904 20.6708423,20.8067057 20.6708423,21.4140127 C20.6708423,22.0213197 20.1189136,22.518135 19.5116066,22.518135 L3.45207032,22.518135 Z M3.45207032,18.518135 C2.84502828,18.518135 2.34821299,18.0213197 2.34821299,17.4140127 C2.34821299,16.8067057 2.84502828,16.3098904 3.45207032,16.3098904 L19.566985,16.3098904 C20.174027,16.3098904 20.6708423,16.8067057 20.6708423,17.4140127 C20.6708423,18.0213197 20.1189136,18.518135 19.5116066,18.518135 L3.45207032,18.518135 Z M3.45207032,14.518135 C2.84502828,14.518135 2.34821299,14.0213197 2.34821299,13.4140127 C2.34821299,12.8067057 2.84502828,12.3098904 3.45207032,12.3098904 L19.566985,12.3098904 C20.174027,12.3098904 20.6708423,12.8067057 20.6708423,13.4140127 C20.6708423,14.0213197 20.1189136,14.518135 19.5116066,14.518135 L3.45207032,14.518135 Z M7.49984102,3 L15.499841,3 C16.3282681,3 16.999841,3.67157288 16.999841,4.5 L16.999841,8.5 C16.999841,9.32842712 16.3282681,10 15.499841,10 L7.49984102,10 C6.67141389,10 5.99984102,9.32842712 5.99984102,8.5 L5.99984102,4.5 C5.99984102,3.67157288 6.67141389,3 7.49984102,3 Z M1.10396331,0 C0.388916016,0 -0.000158980893,0 -0.000158980893,1.10412229 L-0.000158980893,24.8958777 C-0.000158980893,25.5031847 0.496656306,26 1.10396331,26 L21.8599786,26 C23.0192143,26 23.0192143,26 23.0192143,24.8958777 L23.0192143,1.10412229 C22.9638359,0.496815287 22.4670206,0 21.8599786,0 L1.10396331,0 Z" id="Fill-2" fill="#4e6273" mask="url(#mask-3)"></path>
                </g>
            </g>
        </g>
    </g>
</svg>