<?xml version="1.0" encoding="UTF-8"?>
<svg width="18px" height="16px" viewBox="0 0 18 16" version="1.1" xmlns="http://www.w3.org/2000/svg" xmlns:xlink="http://www.w3.org/1999/xlink">
    <title>Group 7</title>
    <defs>
        <polygon id="path-1" points="0 0.0994337349 9.24371458 0.0994337349 9.24371458 14.7108795 0 14.7108795"></polygon>
        <polygon id="path-3" points="0.159410417 0.0360542169 9.38769187 0.0360542169 9.38769187 14.6385542 0.159410417 14.6385542"></polygon>
    </defs>
    <g id="Page-1" stroke="none" stroke-width="1" fill="none" fill-rule="evenodd">
        <g id="8_HyperOtlet_Encyclo_interface_XL" transform="translate(-360.000000, -227.000000)">
            <g id="Group-7" transform="translate(360.000000, 227.000000)">
                <g id="Group-3" transform="translate(0.000000, 0.081325)">
                    <mask id="mask-2" fill="white">
                        <use xlink:href="#path-1"></use>
                    </mask>
                    <g id="Clip-2"></g>
                    <path d="M7.85361042,5.4036506 C8.17236042,5.72895181 8.68590208,5.72895181 9.00465208,5.4036506 C9.32340208,5.0783494 9.32340208,4.55425301 9.00465208,4.22895181 L5.19736042,0.343409639 C4.87861042,0.0181084337 4.36506875,0.0181084337 4.04631875,0.343409639 L0.239027083,4.22895181 C-0.0797229167,4.55425301 -0.0797229167,5.0783494 0.239027083,5.4036506 C0.398402083,5.5663012 0.610902083,5.63859036 0.80569375,5.63859036 C1.00048542,5.63859036 1.21298542,5.5663012 1.37236042,5.4036506 L3.81611042,2.92774699 L3.81611042,13.8795542 C3.81611042,14.3313614 4.17027708,14.7108795 4.63069375,14.7108795 C5.09111042,14.7108795 5.44527708,14.3494337 5.44527708,13.8795542 L5.44527708,2.92774699 L7.85361042,5.4036506 Z" id="Fill-1" fill="#F7A448" mask="url(#mask-2)"></path>
                </g>
                <g id="Group-6" transform="translate(7.437500, 0.262048)">
                    <mask id="mask-4" fill="white">
                        <use xlink:href="#path-3"></use>
                    </mask>
                    <g id="Clip-5"></g>
                    <path d="M9.16409792,9.34328313 C8.84534792,9.01798193 8.33180625,9.01798193 8.01305625,9.34328313 L5.58701458,11.8191867 L5.58701458,0.867560241 C5.58701458,0.415753012 5.23284792,0.0360542169 4.77243125,0.0360542169 C4.31201458,0.0360542169 3.95784792,0.3975 3.95784792,0.867560241 L3.95784792,11.8191867 L1.54951458,9.34328313 C1.23076458,9.01798193 0.717222917,9.01798193 0.398472917,9.34328313 C0.0797229167,9.66876506 0.0797229167,10.1926807 0.398472917,10.5179819 L4.20576458,14.4035241 C4.3649625,14.5661747 4.57763958,14.6386446 4.77243125,14.6386446 C4.96722292,14.6386446 5.17972292,14.5661747 5.33892083,14.4035241 L9.1462125,10.5179819 C9.46513958,10.1926807 9.46513958,9.66876506 9.16409792,9.34328313" id="Fill-4" fill="#F7A448" mask="url(#mask-4)"></path>
                </g>
            </g>
        </g>
    </g>
</svg>