<?xml version="1.0" encoding="UTF-8"?>
<svg width="14px" height="8px" viewBox="0 0 14 8" version="1.1" xmlns="http://www.w3.org/2000/svg" xmlns:xlink="http://www.w3.org/1999/xlink">
    <!-- Generator: Sketch 51.3 (57544) - http://www.bohemiancoding.com/sketch -->
    <title>Fill 1</title>
    <desc>Created with Sketch.</desc>
    <defs></defs>
    <g id="Page-1" stroke="none" stroke-width="1" fill="none" fill-rule="evenodd" transform="scale(1, -1) translate(0, -8)">>
        <g id="specs_integration_3" transform="translate(-1070.000000, -458.000000)" fill="#000000">
            <g id="montrer-tout" transform="translate(962.000000, 454.000000)">
                <path d="M109.45316,4.23385939 L114.901349,9.78639602 L120.379367,4.23385939 C121.101628,3.48338606 122.33582,4.71409115 121.583475,5.46431026 L115.413025,11.7973188 C115.142018,12.0675604 114.690509,12.0675604 114.44984,11.7973188 L108.219223,5.46431026 C107.496706,4.71409115 108.730899,3.48338606 109.45316,4.23385939" id="Fill-1" transform="translate(114.909091, 8.000000) scale(-1, 1) translate(-114.909091, -8.000000) "></path>
            </g>
        </g>
    </g>
</svg>