<?xml version="1.0" encoding="UTF-8"?>
<svg width="7px" height="12px" viewBox="0 0 7 12" version="1.1" xmlns="http://www.w3.org/2000/svg" xmlns:xlink="http://www.w3.org/1999/xlink">
    <g id="Page-1" stroke="none" stroke-width="1" fill="none" fill-rule="evenodd">
        <g transform="translate(-675.000000, -254.000000)" fill="#F7A448" stroke="#F7A448">
            <path d="M673,262.624309 C673,262.58011 673.009049,262.53407 673.027147,262.486188 C673.045245,262.438305 673.072392,262.395949 673.108588,262.359116 L678.277394,257.099448 C678.349786,257.033149 678.436656,257 678.538006,257 C678.639356,257 678.726225,257.033149 678.798618,257.099448 L683.891412,262.292818 C683.963804,262.366483 684,262.45488 684,262.558011 C684,262.661142 683.963804,262.749539 683.891412,262.823204 C683.819019,262.89687 683.732149,262.933702 683.6308,262.933702 C683.52945,262.933702 683.44258,262.89687 683.370188,262.823204 L678.538006,257.906077 L673.629812,262.889503 C673.55742,262.963168 673.47055,263 673.3692,263 C673.267851,263 673.180981,262.963168 673.108588,262.889503 C673.072392,262.85267 673.045245,262.812155 673.027147,262.767956 C673.009049,262.723757 673,262.675875 673,262.624309 Z" id="chevron_precedent_Blanc" transform="translate(678.500000, 260.000000) scale(-1, 1) rotate(90.000000) translate(-678.500000, -260.000000) "></path>
        </g>
    </g>
</svg>