<?xml version="1.0" encoding="UTF-8"?>
<svg width="22px" height="20px" viewBox="0 0 22 20" version="1.1" xmlns="http://www.w3.org/2000/svg" xmlns:xlink="http://www.w3.org/1999/xlink">
    <title>Group 13</title>
    <g id="Page-1" stroke="none" stroke-width="1" fill="none" fill-rule="evenodd" stroke-linecap="square">
        <g id="7_HyperOtlet_Encyclo_interface_XL" transform="translate(-1050.000000, -57.000000)" fill-rule="nonzero" stroke="#F7A448" stroke-width="2">
            <g id="Group-14" transform="translate(210.000000, 59.000000)">
                <g id="Group-13" transform="translate(842.000000, 0.000000)">
                    <line x1="0.359907834" y1="0.344253491" x2="17.3100003" y2="16.5570945" id="Line-6"></line>
                    <line x1="0.359907834" y1="0.344253491" x2="17.3100003" y2="16.5570945" id="Line-6" transform="translate(8.997696, 8.606337) scale(-1, 1) translate(-8.997696, -8.606337) "></line>
                </g>
            </g>
        </g>
    </g>
</svg>