<?xml version="1.0" encoding="UTF-8"?>
<svg width="17px" height="17px" viewBox="0 0 17 17" version="1.1" xmlns="http://www.w3.org/2000/svg" xmlns:xlink="http://www.w3.org/1999/xlink">
    <title>noun_edit_737749</title>
    <g id="Page-1" stroke="none" stroke-width="1" fill="none" fill-rule="evenodd">
        <g id="7_HyperOtlet_Encyclo_interface_XL" transform="translate(-706.000000, -112.000000)" fill="#FDFDFD" fill-rule="nonzero">
            <g id="Group-14" transform="translate(210.000000, 59.000000)">
                <g id="Group" transform="translate(474.000000, 41.000000)">
                    <g id="noun_edit_737749" transform="translate(22.000000, 12.000000)">
                        <path d="M14.2422222,0.0944444444 L13.7133333,0.0944444444 L11.6733333,2.13444444 L14.8844444,5.34555556 L16.9244444,3.30555556 L16.9244444,2.77666667 L14.2422222,0.0944444444 Z M1.47333333,12.3344444 L-4.75885997e-12,17 L4.66555556,15.5266667 L13.5433333,6.64888889 L10.3322222,3.43777778 L1.47333333,12.3344444 Z" id="Shape"></path>
                    </g>
                </g>
            </g>
        </g>
    </g>
</svg>