<?xml version="1.0" encoding="UTF-8"?>
<svg width="28px" height="25px" viewBox="0 0 28 25" version="1.1" xmlns="http://www.w3.org/2000/svg" xmlns:xlink="http://www.w3.org/1999/xlink">
    <title>Fill 1</title>
    <g id="Page-1" stroke="none" stroke-width="1" fill="none" fill-rule="evenodd">
        <g id="48_HyperOtlet_Moncompte_L" transform="translate(-539.000000, -624.000000)">
            <g id="Group-3" transform="translate(522.000000, 605.000000)">
                <g transform="translate(31.000000, 34.500000) rotate(-29.000000) translate(-31.000000, -34.500000) translate(16.000000, 21.000000)">
                    <path d="M26.6175404,9.94211823 C25.1447032,9.94211823 23.9055646,10.8731527 23.436828,12.1699507 L18.1802823,12.1699507 C18.0463576,11.8041872 17.8454705,11.4384236 17.577621,11.1391626 L20.1556721,6.71674877 C20.3565592,6.75 20.5574463,6.78325123 20.7583334,6.78325123 C22.6336144,6.78325123 24.173414,5.28694581 24.173414,3.39162562 C24.173414,1.52955665 22.6667608,0 20.7583334,0 C18.8833871,0 17.3767339,1.49630542 17.3767339,3.39162562 C17.3767339,4.2229064 17.6780646,4.98768473 18.1802823,5.55295567 L15.602566,9.97536946 C15.4013441,9.94211823 15.200457,9.908867 14.9995699,9.908867 C13.5263979,9.908867 12.2875941,10.8399015 11.8188576,12.1366995 L6.56231185,12.1366995 C6.09357529,10.8399015 4.85477152,9.908867 3.38159947,9.908867 C1.50665323,9.908867 0,11.4051724 0,13.3004926 C0,15.1625616 1.50665323,16.6921182 3.38159947,16.6921182 C4.85477152,16.6921182 6.09357529,15.7610837 6.56231185,14.4642857 L11.8188576,14.4642857 C12.2875941,15.7610837 13.5263979,16.6921182 14.9995699,16.6921182 C15.1669758,16.6921182 15.3343818,16.658867 15.5017877,16.658867 L18.2137635,21.3472906 C17.6780646,21.9458128 17.3432527,22.7438424 17.3432527,23.6083744 C17.3432527,25.4704433 18.849906,27 20.7248522,27 C22.5997984,27 24.1402677,25.5036946 24.1402677,23.6083744 C24.1402677,21.7463054 22.6336144,20.2167488 20.7248522,20.2167488 C20.5574463,20.2167488 20.3900404,20.2167488 20.2561156,20.25 L17.5106586,15.5283251 C17.7788429,15.229064 18.0128764,14.8633005 18.1468011,14.4642857 L23.4033468,14.4642857 C23.8720834,15.7610837 25.1108872,16.6921182 26.5840592,16.6921182 C28.4590055,16.6921182 29.9994747,15.1958128 29.9994747,13.3004926 C30.032621,11.4716749 28.4928214,9.94211823 26.6175404,9.94211823" id="Fill-1" fill="#F7A448"></path>
                </g>
            </g>
        </g>
    </g>
</svg>