<?xml version="1.0" encoding="UTF-8"?>
<svg width="15px" height="15px" viewBox="0 0 15 15" version="1.1" xmlns="http://www.w3.org/2000/svg" xmlns:xlink="http://www.w3.org/1999/xlink">
    <title>Group 11</title>
    <defs>
        <polygon id="path-1" points="4.47761194e-05 4.47761194e-05 14.5858657 4.47761194e-05 14.5858657 14.9104478 4.47761194e-05 14.9104478"></polygon>
    </defs>
    <g id="Page-1" stroke="none" stroke-width="1" fill="none" fill-rule="evenodd">
        <g id="1_HyperOtlet_accueil-XL" transform="translate(-394.000000, -25.000000)">
            <g id="Group-17" transform="translate(389.000000, 18.000000)">
                <g id="Group-16" transform="translate(5.000000, 4.000000)">
                    <g id="Group-11" transform="translate(0.000000, 2.999949)">
                        <mask id="mask-2" fill="white">
                            <use xlink:href="#path-1"></use>
                        </mask>
                        <g id="Clip-2"></g>
                        <path d="M1.32088032,6.04477612 C1.32088032,3.44776119 3.4477215,1.32089552 6.04470653,1.32089552 C8.64169156,1.32089552 10.7685328,3.42537313 10.7685328,6.04477612 C10.7685328,8.6641791 8.64169156,10.7686567 6.04470653,10.7686567 C3.4477215,10.7686567 1.32088032,8.64179104 1.32088032,6.04477612 M-2.48689958e-14,6.04477612 C-2.48689958e-14,9.38059701 2.70892404,12.0895522 6.04470653,12.0895522 C7.34319905,12.0895522 8.52975255,11.6865672 9.51503972,10.9925373 L13.1864154,14.6641791 C13.34313,14.8208955 13.567008,14.9104478 13.7687221,14.9104478 C13.9699884,14.9104478 14.1938665,14.8208955 14.3505811,14.6641791 C14.6642342,14.3507463 14.6642342,13.8134328 14.3505811,13.5 L10.7237571,9.87313433 C11.5744936,8.82089552 12.0896369,7.5 12.0896369,6.04477612 C12.0896369,2.70895522 9.38048903,0 6.04470653,0 C2.70892404,0 -2.48689958e-14,2.70895522 -2.48689958e-14,6.04477612" id="Fill-1" fill="#000000" mask="url(#mask-2)"></path>
                    </g>
                </g>
            </g>
        </g>
    </g>
</svg>