<?xml version="1.0" encoding="UTF-8"?>
<svg width="20px" height="20px" viewBox="0 0 20 20" version="1.1" xmlns="http://www.w3.org/2000/svg" xmlns:xlink="http://www.w3.org/1999/xlink">
    <!-- Generator: Sketch 51.3 (57544) - http://www.bohemiancoding.com/sketch -->
    <title>Fill 1</title>
    <desc>Created with Sketch.</desc>
    <defs></defs>
    <g id="Page-1" stroke="none" stroke-width="1" fill="none" fill-rule="evenodd">
        <g id="specs_integration_5" transform="translate(-881.000000, -2863.000000)" fill="#F7A448">
            <g id="Group-3" transform="translate(881.000000, 2863.000000)">
                <path d="M4.60035394,10.7676772 C4.17612858,10.7676772 3.83275678,10.4240495 3.83275678,10.00008 C3.83275678,9.5761105 4.17612858,9.23248283 4.60035394,9.23248283 L15.4004461,9.23248283 C15.8241597,9.23248283 16.1680432,9.5761105 16.1680432,10.00008 C16.1680432,10.4240495 15.8244156,10.7676772 15.4004461,10.7676772 L4.60035394,10.7676772 Z M10.0004,8e-05 C4.47779426,8e-05 0.0004,4.47747426 0.0004,10.00008 C0.0004,15.5226857 4.47779426,20.00008 10.0004,20.00008 C15.5230057,20.00008 20.0004,15.5226857 20.0004,10.00008 C20.0004,4.47747426 15.5230057,8e-05 10.0004,8e-05" id="Fill-1"></path>
            </g>
        </g>
    </g>
</svg>