<?xml version="1.0" encoding="UTF-8"?>
<svg width="22px" height="20px" viewBox="0 0 22 20" version="1.1" xmlns="http://www.w3.org/2000/svg" xmlns:xlink="http://www.w3.org/1999/xlink">
    <title>Group 24</title>
    <g id="Page-1" stroke="none" stroke-width="1" fill="none" fill-rule="evenodd">
        <g id="10_HyperOtlet_EncycloV3_liste_XL" transform="translate(-120.000000, -407.000000)" fill="#CF8DE5">
            <g id="Group-9" transform="translate(71.000000, 255.000000)">
                <g id="Group-24" transform="translate(49.000000, 152.000000)">
                    <path d="M10.2591413,9.76996262e-15 L10.2591413,7.94125235 C11.1616176,7.47985304 12.1841614,7.21939573 13.2672574,7.21939573 C15.8382366,7.21939573 18.0674692,8.68633447 19.1632148,10.8290936 L21.0882349,10.8290936 L21.0882349,9.76996262e-15 L10.2591413,9.76996262e-15 Z" id="Path"></path>
                    <path d="M13.3940863,8.54928441 C10.4081016,8.54928441 7.97933212,10.9780074 7.97933212,13.9639349 C7.97933212,16.9494476 10.4081016,19.378378 13.3940863,19.378378 C16.3796562,19.378378 18.8084257,16.9494476 18.8084257,13.9639349 C18.8086331,10.9780074 16.3798636,8.54928441 13.3940863,8.54928441 L13.3940863,8.54928441 Z" id="Path"></path>
                    <path d="M6.57176553,13.6788551 L-1.54454227e-12,13.6788551 L5.91833763,5.69952294 L8.54928441,9.24680303 C6.50239403,10.9081035 6.48214272,12.8754835 6.57176553,13.6788551 L6.57176553,13.6788551 Z" id="Path"></path>
                </g>
            </g>
        </g>
    </g>
</svg>