<?xml version="1.0" encoding="UTF-8"?>
<svg width="37px" height="36px" viewBox="0 0 37 36" version="1.1" xmlns="http://www.w3.org/2000/svg" xmlns:xlink="http://www.w3.org/1999/xlink">
    <title>panier</title>
    <defs>
        <polygon id="path-1" points="0 0 13 0 13 13 0 13"></polygon>
    </defs>
    <g id="Page-1" stroke="none" stroke-width="1" fill="none" fill-rule="evenodd">
        <g id="20_HyperOtlet_citation_XL_V2_ok" transform="translate(-1018.000000, -128.000000)">
            <g id="panier" transform="translate(1018.900000, 128.000000)">
                <g id="Group-3" transform="translate(9.000000, 9.900000)" fill="#FDFDFD">
                    <path d="M12.74994,12.8269512 C12.74994,13.2434003 12.41244,13.5840818 12.00006,13.5840818 C11.5875,13.5840818 11.25,13.2434003 11.25,12.8269512 L11.25,10.1014993 C11.25,9.68523189 11.5875,9.34455039 12.00006,9.34455039 C12.41244,9.34455039 12.74994,9.68523189 12.74994,10.1014993 L12.74994,12.8269512 Z M9.75006,12.8269512 C9.75006,13.2434003 9.41256,13.5840818 9,13.5840818 C8.58744,13.5840818 8.24994,13.2434003 8.24994,12.8269512 L8.24994,10.1014993 C8.24994,9.68523189 8.58744,9.34455039 9,9.34455039 C9.41256,9.34455039 9.75006,9.68523189 9.75006,10.1014993 L9.75006,12.8269512 Z M6.75,12.8269512 C6.75,13.2434003 6.4125,13.5840818 5.99994,13.5840818 C5.58738,13.5840818 5.24988,13.2434003 5.24988,12.8269512 L5.24988,10.1014993 C5.24988,9.68523189 5.58738,9.34455039 5.99994,9.34455039 C6.4125,9.34455039 6.75,9.68523189 6.75,10.1014993 L6.75,12.8269512 Z M16.95006,5.29416533 L15.6375,5.29416533 L11.7,0.25952872 C11.475,-0.0431781481 11.025,-0.0811527791 10.72494,0.14596822 C10.42506,0.373089219 10.38744,0.789538284 10.61244,1.09242685 L13.87494,5.29416533 L4.05,5.29416533 L7.46244,1.09242685 C7.68744,0.789538284 7.65,0.373089219 7.38738,0.14596822 C7.0875,-0.0811527791 6.6375,-0.0431781481 6.4125,0.25952872 L2.28744,5.29416533 L1.04994,5.29416533 C0.48744,5.29416533 0.03744,5.74840733 2.76756396e-12,6.31620983 L2.76756396e-12,6.99757283 C2.76756396e-12,7.5274007 0.41238,7.94384976 0.9,8.01961733 L2.77488,15.0225754 C2.84994,15.3252822 3.15,16.2337662 3.97494,16.2337662 L13.98744,16.2337662 C14.625,16.2337662 15.03756,15.6659637 15.1875,15.0981612 L17.06256,8.01961733 C17.58744,7.98164269 18,7.5274007 18,6.99757283 L18,6.31620983 C18,5.74840733 17.51256,5.29416533 16.95006,5.29416533 L16.95006,5.29416533 Z" id="Fill-1"></path>
                </g>
                <g id="Group-6" transform="translate(17.600000, 20.000000)">
                    <g id="Group-3">
                        <mask id="mask-2" fill="white">
                            <use xlink:href="#path-1"></use>
                        </mask>
                        <g id="Clip-2"></g>
                        <path d="M6.49934297,0 C10.0893561,0 13,2.91034971 13,6.5 C13,10.0896503 10.0893561,13 6.49934297,13 C2.91064389,13 0,10.0896503 0,6.5 C0,2.91034971 2.91064389,0 6.49934297,0" id="Fill-1" fill="#4E6273" mask="url(#mask-2)"></path>
                    </g>
                    <line x1="5.2" y1="8.66666667" x2="9.53333333" y2="3.46666667" id="Stroke-4" stroke="#FFFFFF" stroke-linecap="round" stroke-linejoin="round"></line>
                    <line x1="3.46666667" y1="8.66666667" x2="5.2" y2="6.06666667" id="Stroke-4" stroke="#FFFFFF" stroke-linecap="round" stroke-linejoin="round" transform="translate(4.333333, 7.366667) scale(-1, 1) translate(-4.333333, -7.366667) "></line>
                </g>
            </g>
        </g>
    </g>
</svg>