<?xml version="1.0" encoding="UTF-8"?>
<svg width="25px" height="26px" viewBox="0 0 25 26" version="1.1" xmlns="http://www.w3.org/2000/svg" xmlns:xlink="http://www.w3.org/1999/xlink">
    <title>Group 3</title>
    <defs>
        <polygon id="path-1" points="0 0 24.64 0 24.64 26 0 26"></polygon>
    </defs>
    <g id="Page-1" stroke="none" stroke-width="1" fill="none" fill-rule="evenodd">
        <g id="8_HyperOtlet_Encyclo_interface_XL" transform="translate(-1169.000000, -150.000000)">
            <g id="Group-3" transform="translate(1169.000000, 150.000000)">
                <mask id="mask-2" fill="white">
                    <use xlink:href="#path-1"></use>
                </mask>
                <g id="Clip-2"></g>
                <path d="M17.4532512,21.3830843 C17.4532512,21.9474561 16.9912512,22.4091477 16.4267488,22.4091477 C15.862,22.4091477 15.4,21.9474561 15.4,21.3830843 L15.4,17.6895518 C15.4,17.1254263 15.862,16.6637347 16.4267488,16.6637347 C16.9912512,16.6637347 17.4532512,17.1254263 17.4532512,17.6895518 L17.4532512,21.3830843 Z M13.3467488,21.3830843 C13.3467488,21.9474561 12.8847488,22.4091477 12.32,22.4091477 C11.7552512,22.4091477 11.2932512,21.9474561 11.2932512,21.3830843 L11.2932512,17.6895518 C11.2932512,17.1254263 11.7552512,16.6637347 12.32,16.6637347 C12.8847488,16.6637347 13.3467488,17.1254263 13.3467488,17.6895518 L13.3467488,21.3830843 Z M9.24,21.3830843 C9.24,21.9474561 8.778,22.4091477 8.2132512,22.4091477 C7.6485024,22.4091477 7.1865024,21.9474561 7.1865024,21.3830843 L7.1865024,17.6895518 C7.1865024,17.1254263 7.6485024,16.6637347 8.2132512,16.6637347 C8.778,16.6637347 9.24,17.1254263 9.24,17.6895518 L9.24,21.3830843 Z M23.2027488,11.1746529 L21.406,11.1746529 L16.016,4.35171332 C15.708,3.94148497 15.092,3.89002175 14.6812512,4.19781613 C14.2707488,4.50561051 14.2192512,5.06998228 14.5272512,5.48045686 L18.9932512,11.1746529 L5.544,11.1746529 L10.2152512,5.48045686 C10.5232512,5.06998228 10.472,4.50561051 10.1125024,4.19781613 C9.702,3.89002175 9.086,3.94148497 8.778,4.35171332 L3.1312512,11.1746529 L1.4372512,11.1746529 C0.6672512,11.1746529 0.0512512,11.7902416 0,12.5597276 L0,13.4831107 C0,14.2011334 0.5645024,14.7655052 1.232,14.8681854 L3.7985024,24.3585941 C3.9012512,24.7688225 4.312,26 5.4412512,26 L19.1472512,26 C20.02,26 20.5847488,25.2305141 20.79,24.4610281 L23.3567488,14.8681854 C24.0752512,14.8167222 24.64,14.2011334 24.64,13.4831107 L24.64,12.5597276 C24.64,11.7902416 23.9727488,11.1746529 23.2027488,11.1746529 L23.2027488,11.1746529 Z" id="Fill-1" fill="#467278" mask="url(#mask-2)"></path>
            </g>
        </g>
    </g>
</svg>