<?xml version="1.0" encoding="UTF-8"?>
<svg width="19px" height="20px" viewBox="0 0 19 20" version="1.1" xmlns="http://www.w3.org/2000/svg" xmlns:xlink="http://www.w3.org/1999/xlink">
    <title>Path</title>
    <g id="Page-1" stroke="none" stroke-width="1" fill="none" fill-rule="evenodd">
        <g id="47_HyperOtlet_Selectionner_XL" transform="translate(-1114.000000, -295.000000)" fill="#F7A448" fill-rule="nonzero">
            <g id="Group-22" transform="translate(1058.000000, 295.000000)">
                <g id="noun_Share_3401996" transform="translate(56.000000, 0.000000)">
                    <path d="M15.0026375,12.4944656 C14.1183395,12.4957741 13.26318,12.8107499 12.5893041,13.3833545 L7.47819302,10.3922434 C7.50485794,10.1336697 7.50485794,9.87303922 7.47819302,9.61446558 L12.5893041,6.62335447 C13.9887346,7.799352 16.032071,7.79539182 17.4269326,6.6139787 C18.8217942,5.43256558 19.1619793,3.41774215 18.2323259,1.84385517 C17.3026724,0.26996818 15.3739073,-0.404646299 13.6659467,0.246695651 C11.9579861,0.8980376 10.96821,2.68565685 11.3226375,4.47891003 L6.40930413,7.36779892 C5.33778067,6.29160892 3.72308416,5.96768952 2.31938886,6.54733335 C0.915693567,7.12697717 0,8.49579925 0,10.0144656 C0,11.5331319 0.915693567,12.901954 2.31938886,13.4815978 C3.72308416,14.0612416 5.33778067,13.7373222 6.40930413,12.6611323 L11.3248597,15.5500211 C11.0325472,17.1033166 11.7458418,18.6730878 13.1081371,19.4745394 C14.4704325,20.275991 16.1890465,20.1369354 17.4047711,19.1268923 C18.6204957,18.1168492 19.0721387,16.4528212 18.5339047,14.9667265 C17.9956706,13.4806318 16.5831962,12.4917502 15.0026375,12.4944656 Z" id="Path"></path>
                </g>
            </g>
        </g>
    </g>
</svg>