<?xml version="1.0" encoding="UTF-8"?>
<svg width="17px" height="17px" viewBox="0 0 17 17" version="1.1" xmlns="http://www.w3.org/2000/svg" xmlns:xlink="http://www.w3.org/1999/xlink">
    <title>Group 8</title>
    <defs>
        <polygon id="path-1" points="0.0664583554 0 6.69775337 0 6.69775337 9.40573545 0.0664583554 9.40573545"></polygon>
        <polygon id="path-3" points="0 0.000232509947 16.346113 0.000232509947 16.346113 6.76392573 0 6.76392573"></polygon>
    </defs>
    <g id="Page-1" stroke="none" stroke-width="1" fill="none" fill-rule="evenodd">
        <g id="8_HyperOtlet_Encyclo_interface_XL" transform="translate(-123.000000, -295.000000)">
            <g id="Group-9" transform="translate(71.000000, 255.000000)">
                <g id="Group-8" transform="translate(52.000000, 40.000000)">
                    <g id="Group-3" transform="translate(4.509284, -0.000000)">
                        <mask id="mask-2" fill="white">
                            <use xlink:href="#path-1"></use>
                        </mask>
                        <g id="Clip-2"></g>
                        <path d="M6.64521883,3.8652113 C6.99873342,1.73895481 5.53016578,-1.99629752e-05 3.38202255,-1.99629752e-05 C1.23467507,-1.99629752e-05 -0.234091512,1.73895481 0.11882626,3.8652113 L0.653176393,7.0858381 C0.865643236,8.36207111 2.09349469,9.40573545 3.38222149,9.40573545 C4.67154509,9.40573545 5.8986008,8.36187148 6.11047082,7.0858381 L6.64521883,3.8652113 Z" id="Fill-1" fill="#7BD46D" mask="url(#mask-2)"></path>
                    </g>
                    <g id="Group-6" transform="translate(0.000000, 9.582228)">
                        <mask id="mask-4" fill="white">
                            <use xlink:href="#path-3"></use>
                        </mask>
                        <g id="Clip-5"></g>
                        <path d="M11.0350433,0.000232509947 C10.266774,0.74743493 9.2502476,1.22217797 8.17303606,1.22217797 C7.09602885,1.22217797 6.07929808,0.74743493 5.31102885,0.000232509947 L1.29232692,1.38620317 C0.581269231,1.63097273 -4.08653846e-05,2.46631756 -4.08653846e-05,3.24099843 L-4.08653846e-05,6.76394687 L16.346113,6.76394687 L16.346113,3.24099843 C16.346113,2.46631756 15.7648029,1.63097273 15.0537452,1.38620317 L11.0350433,0.000232509947 Z" id="Fill-4" fill="#7BD46D" mask="url(#mask-4)"></path>
                    </g>
                </g>
            </g>
        </g>
    </g>
</svg>