<?xml version="1.0" encoding="UTF-8"?>
<svg width="21px" height="23px" viewBox="0 0 21 23" version="1.1" xmlns="http://www.w3.org/2000/svg" xmlns:xlink="http://www.w3.org/1999/xlink">
    <title>Group 5</title>
    <defs>
        <filter id="filter-1">
            <feColorMatrix in="SourceGraphic" type="matrix" values="0 0 0 0 0.219608 0 0 0 0 0.274510 0 0 0 0 0.317647 0 0 0 1.000000 0"></feColorMatrix>
        </filter>
        <polygon id="path-2" points="0 0.1925 19.1125 0.1925 19.1125 21.78 0 21.78"></polygon>
    </defs>
    <g id="Page-1" stroke="none" stroke-width="1" fill="none" fill-rule="evenodd">
        <g id="8_HyperOtlet_Encyclo_interface_XL" transform="translate(-1175.000000, -283.000000)">
            <g id="Group-5" transform="translate(361.000000, 278.000000)" >
                <g transform="translate(814.500000, 5.000000)">
                    <polygon id="Fill-1" fill="#384651" points="14.254108 21.25761 18.562588 16.94913 14.254108 16.94913"></polygon>
                    <g id="Group-4" transform="translate(0.000000, 0.027500)">
                        <mask id="mask-3" fill="white">
                            <use xlink:href="#path-2"></use>
                        </mask>
                        <g id="Clip-3"></g>
                        <path d="M12.879108,7.6175 L6.187368,7.6175 C5.683348,7.6175 5.270848,7.205 5.270848,6.70076 C5.270848,6.19674 5.683348,5.78424 6.187368,5.78424 L12.925088,5.78424 C13.429108,5.78424 13.841608,6.19674 13.841608,6.70076 C13.841608,7.205 13.383348,7.6175 12.879108,7.6175 M12.879108,12.24674 L6.187368,12.24674 C5.683348,12.24674 5.270848,11.83424 5.270848,11.33 C5.270848,10.82576 5.683348,10.41326 6.187368,10.41326 L12.925088,10.41326 C13.429108,10.41326 13.841608,10.82576 13.841608,11.33 C13.841608,11.83424 13.383348,12.24674 12.879108,12.24674 M18.150088,0.1925 L0.916608,0.1925 C0.412368,0.1925 -0.000132,0.605 -0.000132,1.10924 L-0.000132,20.86326 C-0.000132,21.3675 0.412368,21.78 0.916608,21.78 L12.466608,21.78 L12.466608,16.005 C12.466608,15.50076 12.879108,15.08826 13.383348,15.08826 L19.112588,15.08826 L19.112588,1.10924 C19.066608,0.605 18.654108,0.1925 18.150088,0.1925" id="Fill-2" fill="#384651" mask="url(#mask-3)"></path>
                    </g>
                </g>
            </g>
        </g>
    </g>
</svg>