<?xml version="1.0" encoding="UTF-8"?>
<svg width="17px" height="24px" viewBox="0 0 17 24" version="1.1" xmlns="http://www.w3.org/2000/svg" xmlns:xlink="http://www.w3.org/1999/xlink">
    <title>Group 5</title>
    <g id="Page-1" stroke="none" stroke-width="1" fill="none" fill-rule="evenodd">
        <g id="2_HyperOtlet_Encyclo_interface_XL" transform="translate(-313.000000, -768.000000)" fill="#384651">
            <g id="Group-20" transform="translate(68.000000, 749.000000)">
                <g id="Group-15" transform="translate(47.000000, 0.000000)">
                    <g id="Group-5" transform="translate(198.000000, 19.000000)">
                        <polygon id="Fill-1" points="0 23.7111636 7.06241677 23.7111636 7.06241677 20.4483328 0 20.4483328"></polygon>
                        <polygon id="Fill-2" points="9.71082306 23.7111636 16.7732398 23.7111636 16.7732398 20.4483328 9.71082306 20.4483328"></polygon>
                        <path d="M0,19.6326251 L16.7732398,19.6326251 L16.7732398,2.05329187 L0,2.05329187 L0,19.6326251 Z M11.8790043,7.38875195 L15.0659879,7.38875195 L15.0659879,3.8143329 L11.8790043,3.8143329 L11.8790043,7.38875195 Z M6.79295807,7.38875195 L9.98062184,7.38875195 L9.98062184,3.8143329 L6.79295807,3.8143329 L6.79295807,7.38875195 Z M1.79839603,7.38875195 L4.9857197,7.38875195 L4.9857197,3.8143329 L1.79839603,3.8143329 L1.79839603,7.38875195 Z M11.8790043,12.2105634 L15.0659879,12.2105634 L15.0659879,8.63614433 L11.8790043,8.63614433 L11.8790043,12.2105634 Z M6.79295807,12.2105634 L9.98062184,12.2105634 L9.98062184,8.63614433 L6.79295807,8.63614433 L6.79295807,12.2105634 Z M1.79839603,12.2105634 L4.9857197,12.2105634 L4.9857197,8.63614433 L1.79839603,8.63614433 L1.79839603,12.2105634 Z M11.8790043,17.4881587 L15.0659879,17.4881587 L15.0659879,13.914048 L11.8790043,13.914048 L11.8790043,17.4881587 Z M6.79295807,17.4881587 L9.98062184,17.4881587 L9.98062184,13.914048 L6.79295807,13.914048 L6.79295807,17.4881587 Z M1.79839603,17.4881587 L4.9857197,17.4881587 L4.9857197,13.914048 L1.79839603,13.914048 L1.79839603,17.4881587 Z" id="Fill-3"></path>
                        <polygon id="Fill-4" points="3.71163509 0.13887584 3.71163509 1.42087098 0.648589295 1.42087098 0.648589295 3.33511825 16.2147324 3.33511825 16.2147324 1.42087098 13.1516866 1.42087098 13.1516866 0.13887584"></polygon>
                    </g>
                </g>
            </g>
        </g>
    </g>
</svg>