<?xml version="1.0" encoding="UTF-8"?>
<svg width="15px" height="20px" viewBox="0 0 15 20" version="1.1" xmlns="http://www.w3.org/2000/svg" xmlns:xlink="http://www.w3.org/1999/xlink">
    <title>F05665B5-640C-401B-8B1B-D5E5108A0B77</title>
    <g id="Page-1" stroke="none" stroke-width="1" fill="none" fill-rule="evenodd">
        <g id="2_corpus_V2_F" transform="translate(-125.000000, -132.000000)">
            <g id="Icones-barre-haut" transform="translate(43.000000, 132.150000)">
                <g id="Group-18" transform="translate(82.000000, 0.850000)">
                    <path d="M15,11.375 C15,10.8575 14.58045,10.4375 14.0625,10.4375 L9.375,10.4375 C8.85705,10.4375 8.4375,10.8575 8.4375,11.375 L8.4375,16.0625 C8.4375,16.58045 8.85705,17 9.375,17 L14.0625,17 C14.58045,17 15,16.58045 15,16.0625 L15,11.375 Z M6.5625,11.375 C6.5625,10.8575 6.14295,10.4375 5.625,10.4375 L0.9375,10.4375 C0.41955,10.4375 0,10.8575 0,11.375 L0,16.0625 C0,16.58045 0.41955,17 0.9375,17 L5.625,17 C6.14295,17 6.5625,16.58045 6.5625,16.0625 L6.5625,11.375 Z M15,2.9375 C15,2.42 14.58045,2 14.0625,2 L9.375,2 C8.85705,2 8.4375,2.42 8.4375,2.9375 L8.4375,7.625 C8.4375,8.1425 8.85705,8.5625 9.375,8.5625 L14.0625,8.5625 C14.58045,8.5625 15,8.1425 15,7.625 L15,2.9375 Z M6.5625,7.625 C6.5625,8.1425 6.14295,8.5625 5.625,8.5625 L0.9375,8.5625 C0.41955,8.5625 0,8.1425 0,7.625 L0,2.9375 C0,2.42 0.41955,2 0.9375,2 L5.625,2 C6.14295,2 6.5625,2.42 6.5625,2.9375 L6.5625,7.625 Z" id="Fill-1" fill="#384651"></path>
                </g>
            </g>
        </g>
    </g>
</svg>