<?xml version="1.0" encoding="UTF-8"?>
<svg width="27px" height="20px" viewBox="0 0 27 20" version="1.1" xmlns="http://www.w3.org/2000/svg" xmlns:xlink="http://www.w3.org/1999/xlink">
    <title>noun_List_124119</title>
    <g id="Page-1" stroke="none" stroke-width="1" fill="none" fill-rule="evenodd">
        <g id="8_HyperOtlet_Encyclo_interface_XL" transform="translate(-68.000000, -162.000000)" fill="#384651" fill-rule="nonzero">
            <g id="haut_mode" transform="translate(68.000000, 146.000000)">
                <g id="noun_List_124119" transform="translate(0.000000, 16.000000)">
                    <circle id="Oval" cx="2.06060606" cy="2.21212121" r="1.93939394"></circle>
                    <rect id="Rectangle" x="6.3030303" y="1" width="20" height="2.39393939"></rect>
                    <circle id="Oval" cx="2.06060606" cy="10.0909091" r="1.93939394"></circle>
                    <rect id="Rectangle" x="6.3030303" y="8.87878788" width="20" height="2.39393939"></rect>
                    <circle id="Oval" cx="2.06060606" cy="17.969697" r="1.93939394"></circle>
                    <rect id="Rectangle" x="6.3030303" y="16.7575758" width="20" height="2.39393939"></rect>
                </g>
            </g>
        </g>
    </g>
</svg>