<?xml version="1.0" encoding="UTF-8"?>
<svg width="34px" height="20px" viewBox="0 0 34 20" version="1.1" xmlns="http://www.w3.org/2000/svg" xmlns:xlink="http://www.w3.org/1999/xlink">
    <title>Group 9</title>
    <defs>
        <polygon id="path-2" points="0 0 17 0 17 19 0 19"></polygon>
        <polygon id="path-5" points="0 0 12 0 12 7.38461538 0 7.38461538"></polygon>
        <polygon id="path-8" points="0 0 12 0 12 7.38461538 0 7.38461538"></polygon>
    </defs>
    <g id="Page-1" stroke="none" stroke-width="1" fill="none" fill-rule="evenodd">
        <g id="2_corpus_V2_F" transform="translate(-219.000000, -132.000000)">
            <g id="Icones-barre-haut" transform="translate(43.000000, 132.150000)">
                <g id="Notices" transform="translate(176.483227, 0.000000)">
                    <g id="Group-9" transform="translate(0.000000, 0.000000)">
                        <g id="Group-5">
                            <g transform="translate(7.516773, 0.000000)" id="Group-4">
                                <mask id="mask-3" fill="white">
                                    <use xlink:href="#path-2"></use>
                                </mask>
                                <g id="Clip-3"></g>
                                <path d="M11.4339079,10.1592357 L6.53223193,10.1592357 C6.16303906,10.1592357 5.86088426,9.87261146 5.86088426,9.52224204 C5.86088426,9.17202548 6.16303906,8.88540127 6.53223193,8.88540127 L11.4675881,8.88540127 C11.8367809,8.88540127 12.1389357,9.17202548 12.1389357,9.52224204 C12.1389357,9.87261146 11.8032619,10.1592357 11.4339079,10.1592357 M11.4339079,14.3758471 L6.53223193,14.3758471 C6.16303906,14.3758471 5.86088426,14.0892229 5.86088426,13.7388535 C5.86088426,13.3884841 6.16303906,13.1018599 6.53223193,13.1018599 L11.4675881,13.1018599 C11.8367809,13.1018599 12.1389357,13.3884841 12.1389357,13.7388535 C12.1389357,14.0892229 11.8032619,14.3758471 11.4339079,14.3758471 M2.67141882,4 C2.3020648,4 1.99991,4.2866242 1.99991,4.63699363 L1.99991,18.3630064 C1.99991,18.7133758 2.3020648,19 2.67141882,19 L15.2948821,19 L15.99991,18.3630064 L15.99991,4.63699363 C15.9662298,4.2866242 15.664075,4 15.2948821,4 L2.67141882,4 Z" id="Fill-2" fill="#ffffff" mask="url(#mask-3)"></path>
                            </g>
                        </g>
                        <g id="Group-3">
                            <g transform="translate(29.692308, 10.692308) rotate(-90.000000) translate(-29.692308, -10.692308) translate(23.692308, 7.000000)">
                                <mask id="mask-6" fill="white">
                                    <use xlink:href="#path-5"></use>
                                </mask>
                                <g id="Clip-2"></g>
                                <path d="M5.567429,6.46028163 C5.66095103,6.45441029 5.74965018,6.41760958 5.81968687,6.35543629 L10.0135002,2.5810043 C10.1869144,2.42593805 10.2016976,2.15973575 10.0467362,1.98642642 C9.89156507,1.81311708 9.62536277,1.79833389 9.45215828,1.95340014 L9.44995653,1.95518251 L5.53796746,5.47735663 L1.62587354,1.95518251 C1.45361266,1.79906781 1.18730551,1.81206863 1.03108597,1.98432951 C0.874971266,2.15669524 0.887972088,2.42289754 1.06023297,2.57911709 C1.06096689,2.57974616 1.06159596,2.58037523 1.06232988,2.5810043 L5.2561432,6.35543629 C5.34138246,6.43134431 5.45377665,6.46908863 5.567429,6.46028163" id="Fill-1" stroke="#ffffff" fill="#ffffff" stroke-linecap="round" stroke-linejoin="round" mask="url(#mask-6)"></path>
                            </g>
                        </g>
                        <g id="Group-3">
                            <g transform="translate(3.692308, 10.692308) scale(-1, 1) rotate(-90.000000) translate(-3.692308, -10.692308) translate(-2.307692, 7.000000)">
                                <mask id="mask-9" fill="white">
                                    <use xlink:href="#path-8"></use>
                                </mask>
                                <g id="Clip-2"></g>
                                <path d="M5.567429,6.46028163 C5.66095103,6.45441029 5.74965018,6.41760958 5.81968687,6.35543629 L10.0135002,2.5810043 C10.1869144,2.42593805 10.2016976,2.15973575 10.0467362,1.98642642 C9.89156507,1.81311708 9.62536277,1.79833389 9.45215828,1.95340014 L9.44995653,1.95518251 L5.53796746,5.47735663 L1.62587354,1.95518251 C1.45361266,1.79906781 1.18730551,1.81206863 1.03108597,1.98432951 C0.874971266,2.15669524 0.887972088,2.42289754 1.06023297,2.57911709 C1.06096689,2.57974616 1.06159596,2.58037523 1.06232988,2.5810043 L5.2561432,6.35543629 C5.34138246,6.43134431 5.45377665,6.46908863 5.567429,6.46028163" id="Fill-1" stroke="#ffffff" fill="#ffffff" stroke-linecap="round" stroke-linejoin="round" mask="url(#mask-9)"></path>
                            </g>
                        </g>
                    </g>
                </g>
            </g>
        </g>
    </g>
</svg>