<?xml version="1.0" encoding="UTF-8"?>
<svg width="42px" height="45px" viewBox="0 0 42 45" version="1.1" xmlns="http://www.w3.org/2000/svg" xmlns:xlink="http://www.w3.org/1999/xlink">
    <title>Group 5</title>
    <defs>
        <filter id="filter-1">
            <feColorMatrix in="SourceGraphic" type="matrix" values="0 0 0 0 0.968627 0 0 0 0 0.643137 0 0 0 0 0.282353 0 0 0 1.000000 0"></feColorMatrix>
        </filter>
        <filter x="-92.0%" y="-80.0%" width="287.4%" height="265.0%" filterUnits="objectBoundingBox" id="filter-2">
            <feOffset dx="4" dy="2" in="SourceAlpha" result="shadowOffsetOuter1"></feOffset>
            <feGaussianBlur stdDeviation="2" in="shadowOffsetOuter1" result="shadowBlurOuter1"></feGaussianBlur>
            <feColorMatrix values="0 0 0 0 0   0 0 0 0 0   0 0 0 0 0  0 0 0 0.5 0" type="matrix" in="shadowBlurOuter1" result="shadowMatrixOuter1"></feColorMatrix>
            <feMerge>
                <feMergeNode in="shadowMatrixOuter1"></feMergeNode>
                <feMergeNode in="SourceGraphic"></feMergeNode>
            </feMerge>
        </filter>
        <polygon id="path-3" points="0 0.175 17.375 0.175 17.375 19.8 0 19.8"></polygon>
    </defs>
    <g id="Page-1" stroke="none" stroke-width="1" fill="none" fill-rule="evenodd">
        <g id="Group-5" transform="translate(-697.000000, -328.000000)" filter="url(#filter-1)">
            <g filter="url(#filter-2)" transform="translate(709.000000, 340.000000)">
                <polygon id="Fill-1" fill="#000000" points="12.95828 19.3251 16.87508 15.4083 12.95828 15.4083"></polygon>
                <g id="Group-4" transform="translate(0.000000, 0.025000)">
                    <mask id="mask-4" fill="white">
                        <use xlink:href="#path-3"></use>
                    </mask>
                    <g id="Clip-3"></g>
                    <path d="M11.70828,6.925 L5.62488,6.925 C5.16668,6.925 4.79168,6.55 4.79168,6.0916 C4.79168,5.6334 5.16668,5.2584 5.62488,5.2584 L11.75008,5.2584 C12.20828,5.2584 12.58328,5.6334 12.58328,6.0916 C12.58328,6.55 12.16668,6.925 11.70828,6.925 M11.70828,11.1334 L5.62488,11.1334 C5.16668,11.1334 4.79168,10.7584 4.79168,10.3 C4.79168,9.8416 5.16668,9.4666 5.62488,9.4666 L11.75008,9.4666 C12.20828,9.4666 12.58328,9.8416 12.58328,10.3 C12.58328,10.7584 12.16668,11.1334 11.70828,11.1334 M16.50008,0.175 L0.83328,0.175 C0.37488,0.175 -0.00012,0.55 -0.00012,1.0084 L-0.00012,18.9666 C-0.00012,19.425 0.37488,19.8 0.83328,19.8 L11.33328,19.8 L11.33328,14.55 C11.33328,14.0916 11.70828,13.7166 12.16668,13.7166 L17.37508,13.7166 L17.37508,1.0084 C17.33328,0.55 16.95828,0.175 16.50008,0.175" id="Fill-2" fill="#000000" mask="url(#mask-4)"></path>
                </g>
            </g>
        </g>
    </g>
</svg>