<?xml version="1.0" encoding="UTF-8"?>
<svg width="43px" height="44px" viewBox="0 0 43 44" version="1.1" xmlns="http://www.w3.org/2000/svg" xmlns:xlink="http://www.w3.org/1999/xlink">
    <title>Group 18</title>
    <g id="Page-1" stroke="none" stroke-width="1" fill="none" fill-rule="evenodd">
        <g id="8_HyperOtlet_Encyclo_interface_XL" transform="translate(-150.000000, -146.000000)">
            <g id="haut_mode" transform="translate(68.000000, 146.000000)">
                <g id="Group-18" transform="translate(82.933013, 0.482051)">
                    <path d="M34.8638536,30.5854892 C33.5678077,29.2921636 31.6013932,28.9903876 29.9925085,29.6801613 L27.7579466,25.972628 C27.9814027,25.8001845 28.2495502,25.6277411 28.4730064,25.4121869 C30.7075684,23.342866 30.7522596,19.9371086 28.6070801,17.781566 C26.4619006,15.6260234 22.9312927,15.5829126 20.6967307,17.6522335 C19.4900672,18.7731156 18.9537724,20.2388846 18.9984636,21.7046536 L14.4846484,22.2219838 C14.2611922,21.7046536 13.9483535,21.1873234 13.5461324,20.7562148 C13.09922,20.2819955 12.5629251,19.9802195 11.981939,19.7646652 L12.7416901,13.987811 C13.8589711,14.0309219 14.976252,13.6429242 15.8253856,12.823818 C17.5236527,11.2287165 17.5683439,8.5989545 15.9147681,6.91763126 C14.2611922,5.27941887 11.5350266,5.23630802 9.79206826,6.83140955 C8.09380116,8.42651109 8.04910992,11.0562731 9.70268578,12.7375963 C10.2836719,13.3411482 11.043423,13.7291459 11.803174,13.9015893 L11.043423,19.549111 C9.74737702,19.3766676 8.40663983,19.7215544 7.37874132,20.6699931 C5.68047422,22.2650947 5.63578298,24.8948567 7.28935885,26.5761799 C8.94293471,28.2143923 11.6691003,28.2575031 13.4120587,26.6624016 C14.4399572,25.7139628 14.8421783,24.3775264 14.6634134,23.0842009 L19.0431548,22.6099815 C19.266611,23.6015311 19.7135234,24.5499698 20.5179657,25.3259652 C22.2609241,27.0503993 24.853016,27.3952861 26.9535042,26.4468473 L29.1880662,30.1543806 C29.0093013,30.2837132 28.8752275,30.3699349 28.7411538,30.4992674 C27.0428867,32.094369 26.9981955,34.724131 28.6517713,36.4054542 C30.3053472,38.0436666 33.0315128,38.0867774 34.7744712,36.4916759 C36.4727383,34.8965744 36.5174295,32.2668124 34.8638536,30.5854892 Z" id="-" fill="#384651" fill-rule="nonzero" transform="translate(21.076606, 21.661543) rotate(-28.000000) translate(-21.076606, -21.661543) "></path>
                    <g id="noun_Data_1851415" transform="translate(22.500000, 23.000000) rotate(-30.000000) translate(-22.500000, -23.000000) translate(11.000000, 11.000000)" stroke="#384651" stroke-linecap="square" stroke-width="2">
                        <line x1="2.35769515" y1="0.968911087" x2="0.57179677" y2="12.0621778" id="Line-2"></line>
                        <line x1="13.7320508" y1="9.26794919" x2="0.57179677" y2="12.0621778" id="Line-2"></line>
                        <line x1="13.7320508" y1="9.26794919" x2="22.7224319" y2="23.6961524" id="Line-2"></line>
                    </g>
                </g>
            </g>
        </g>
    </g>
</svg>