<?xml version="1.0" encoding="UTF-8"?>
<svg width="25px" height="24px" viewBox="0 0 25 24" version="1.1" xmlns="http://www.w3.org/2000/svg" xmlns:xlink="http://www.w3.org/1999/xlink">
    <title>Group 12</title>
    <defs>
        <polygon id="path-1" points="1.6234507 0.110013057 12.3800243 0.110013057 12.3800243 9.75877937 1.6234507 9.75877937"></polygon>
    </defs>
    <g id="Page-1" stroke="none" stroke-width="1" fill="none" fill-rule="evenodd">
        <g id="10_HyperOtlet_EncycloV3_liste_XL" transform="translate(-119.000000, -479.000000)">
            <g id="Group-9" transform="translate(71.000000, 255.000000)">
                <g id="Group-20" transform="translate(48.000000, 224.000000)">
                    <g id="Group-12" transform="translate(-0.000000, 0.000000)">
                        <path d="M2.38933049,9.75877937 C2.82260038,9.75877937 3.17941087,9.39638342 3.17941087,8.95633119 L3.17941087,6.65252836 C3.17941087,4.91820488 4.58116638,3.4945065 6.28875945,3.4945065 L7.97086606,3.4945065 L7.97086606,4.60757978 C7.97086606,4.8405486 8.09829838,5.04763201 8.30219009,5.15117371 C8.40413594,5.20294456 8.5060818,5.22882998 8.60802765,5.22882998 C8.70997351,5.22882998 8.83740583,5.20294456 8.93935168,5.12528828 L12.0741867,3.20976682 C12.252592,3.10622512 12.3800243,2.89914172 12.3800243,2.6661729 C12.3800243,2.43320407 12.252592,2.22612067 12.0741867,2.12257897 L8.93935168,0.207057515 C8.73545997,0.0776303898 8.5060818,0.0776303898 8.30219009,0.207057515 C8.09829838,0.336484641 7.99635252,0.517682616 7.99635252,0.750651442 L7.99635252,1.91549557 L6.31424591,1.91549557 C3.74011307,1.91549557 1.62473658,4.03810043 1.62473658,6.67841379 L1.62473658,8.98221662 C1.59925012,9.39638342 1.95606061,9.75877937 2.38933049,9.75877937" id="Fill-1" fill="#E55050"></path>
                        <path d="M8.97217288,20.9358638 L6.63560115,20.9358638 C4.87660896,20.9358638 3.43266014,19.5631021 3.43266014,17.8908288 L3.43266014,16.2435148 L4.56156558,16.2435148 C4.79784811,16.2435148 5.00787703,16.1187182 5.11289149,15.9187942 C5.21790595,15.7193694 5.21790595,15.4947356 5.11289149,15.2948116 L3.17012399,12.2250669 C2.93384146,11.8506773 2.3037547,11.8506773 2.06747217,12.2250669 L0.0984510557,15.2948116 C-0.0328170186,15.4947356 -0.0328170186,15.7193694 0.0984510557,15.9187942 C0.203465515,16.1187182 0.439748049,16.2435148 0.649776968,16.2435148 L1.83118964,16.2435148 L1.83118964,17.8908288 C1.83118964,20.4114689 3.98398605,22.4833406 6.66185477,22.4833406 L8.99842649,22.4833406 C9.44473794,22.4833406 9.81228855,22.1339104 9.81228855,21.7096022 C9.81228855,21.2850445 9.41848433,20.9358638 8.97217288,20.9358638" id="Fill-4" fill="#E55050"></path>
                        <path d="M16.1566406,23.8885494 C16.3687265,23.7897823 16.5012803,23.5667517 16.5012803,23.3687223 L16.5012803,22.2548071 L18.2507242,22.2548071 C20.9285742,22.2548071 23.1289659,20.2250061 23.1289659,17.7001316 L23.1289659,15.4973024 C23.1289659,15.1009962 22.7575504,14.7546923 22.3068677,14.7546923 C21.8564502,14.7546923 21.4852998,15.1009962 21.4852998,15.5218086 L21.4852998,17.7251328 C21.4852998,19.3833813 20.027209,20.7448332 18.2507242,20.7448332 L16.5012803,20.7448332 L16.5012803,19.6804253 C16.5012803,19.4578898 16.3687265,19.2596129 16.1566406,19.1605982 C15.9442896,19.0615835 15.705958,19.0615835 15.493872,19.1605982 L12.2330507,20.9923699 C12.0474755,21.0913846 11.9149218,21.289414 11.9149218,21.512197 C11.9149218,21.73498 12.0474755,21.9332569 12.2330507,22.0320241 L15.493872,23.8637958" id="Fill-6" fill="#E55050"></path>
                        <path d="M24.4575378,8.6604712 C24.3522502,8.4611508 24.115353,8.33657555 23.9045146,8.33657555 L22.7200288,8.33657555 L22.7200288,6.69218229 C22.7200288,4.17576229 20.5618958,2.10781319 17.8770615,2.10781319 L15.5344119,2.10781319 C15.0866763,2.10781319 14.7184328,2.45662388 14.7184328,2.88017972 C14.7184328,3.30373556 15.0866763,3.65254625 15.5344119,3.65254625 L17.8770615,3.65254625 C19.6406291,3.65254625 21.0883339,5.02287397 21.0883339,6.69218229 L21.0883339,8.33657555 L19.9562288,8.33657555 C19.7195948,8.33657555 19.5090196,8.4611508 19.403732,8.6604712 C19.2981811,8.85979159 19.2981811,9.08402704 19.403732,9.28334743 L21.351553,12.3478985 C21.4568406,12.5223039 21.6671526,12.6468791 21.904313,12.6468791 C22.1412101,12.6468791 22.3517854,12.5223039 22.4568098,12.3478985 L24.404894,9.28334743 C24.5625622,9.08402704 24.5625622,8.85979159 24.4575378,8.6604712" id="Fill-8" fill="#E55050"></path>
                        <path d="M10.1916893,12.6456381 C10.1916893,11.2871491 11.2864488,10.2160329 12.6157996,10.2160329 C13.971216,10.2160329 15.0399098,11.3132739 15.0399098,12.6456381 C15.0399098,13.9780022 13.9448897,15.0752433 12.6157996,15.0752433 C11.2603831,15.0752433 10.1916893,14.004127 10.1916893,12.6456381 M13.7887561,18.54984 L13.9448897,16.9823528 C13.9448897,16.9298419 13.9972818,16.8778536 14.0494132,16.8517288 C14.2318731,16.799218 14.3882673,16.7211049 14.5707272,16.6427305 C14.6228586,16.6166057 14.67499,16.6166057 14.7268607,16.6685941 L15.9522094,17.6615972 C16.1604743,17.818346 16.4474577,17.818346 16.6038519,17.6354725 L17.5682829,16.6685941 C17.7507428,16.4859818 17.7507428,16.1986092 17.5940879,16.0154744 L16.6038519,14.7878706 C16.5777862,14.7356211 16.5514598,14.6833715 16.5777862,14.6311219 C16.6559833,14.4743732 16.7341804,14.2914997 16.7863118,14.1086262 C16.8121169,14.0561153 16.8645089,14.004127 16.9166403,14.004127 L18.4805824,13.8473783 C18.7412394,13.8212535 18.9236993,13.6122552 18.9236993,13.3510073 L18.9236993,11.9925184 C18.9236993,11.7312705 18.7412394,11.5222722 18.4805824,11.4961474 L16.9166403,11.3393987 C16.8645089,11.3393987 16.8121169,11.2871491 16.7863118,11.2348996 C16.7341804,11.0520261 16.6559833,10.8952773 16.5777862,10.7124038 C16.5514598,10.6601542 16.5514598,10.6079047 16.6038519,10.5556551 L17.5940879,9.32779009 C17.7507428,9.1187918 17.7507428,8.83141914 17.5682829,8.67467041 L16.6038519,7.68192849 C16.4211313,7.49905498 16.1346693,7.49905498 15.9522094,7.65580371 L14.7268607,8.64854562 C14.67499,8.67467041 14.6228586,8.7007952 14.5707272,8.67467041 C14.414333,8.59629605 14.2318731,8.51792169 14.0494132,8.46567211 C13.9972818,8.43954733 13.9448897,8.38729775 13.9448897,8.33504818 L13.7887561,6.76756094 C13.7626904,6.50631307 13.5539042,6.32343956 13.2932472,6.32343956 L11.9380913,6.32343956 C11.6774343,6.32343956 11.4689087,6.50631307 11.442843,6.76756094 L11.2864488,8.33504818 C11.2864488,8.38729775 11.2343174,8.43954733 11.182186,8.46567211 C10.9997261,8.51792169 10.8433319,8.59629605 10.6608719,8.67467041 C10.6087405,8.7007952 10.5566091,8.7007952 10.5044777,8.64854562 L9.27938976,7.65580371 C9.07086415,7.49905498 8.78414143,7.49905498 8.62774722,7.68192849 L7.66331627,8.64854562 C7.48085635,8.83141914 7.48085635,9.1187918 7.63725056,9.30166531 L8.62774722,10.5295303 C8.65381293,10.5817799 8.67987863,10.6340295 8.65381293,10.686279 C8.57561582,10.8430278 8.49741872,11.0259013 8.44528731,11.2087748 C8.41922161,11.2610244 8.36709021,11.3132739 8.31495881,11.3132739 L6.75101671,11.4700227 C6.49035969,11.4961474 6.30789978,11.7051457 6.30789978,11.9663936 L6.30789978,13.3248825 C6.30789978,13.5861304 6.49035969,13.7948675 6.75101671,13.8212535 L8.31495881,13.9780022 C8.36709021,13.9780022 8.41922161,14.0302518 8.44528731,14.0825014 C8.49741872,14.2653749 8.57561582,14.4221236 8.65381293,14.6049971 C8.67987863,14.6572467 8.67987863,14.709235 8.62774722,14.7617459 L7.63725056,15.9896109 C7.48085635,16.1986092 7.48085635,16.4859818 7.66331627,16.6427305 L8.62774722,17.6093477 C8.81020714,17.7922212 9.09692985,17.7922212 9.27938976,17.6354725 L10.5044777,16.6427305 C10.5566091,16.6166057 10.6087405,16.590481 10.6608719,16.6166057 C10.8172662,16.6949801 10.9997261,16.7733545 11.182186,16.825604 C11.2343174,16.8517288 11.2864488,16.9039784 11.2864488,16.956228 L11.442843,18.5237152 C11.4689087,18.7849631 11.6774343,18.9678366 11.9380913,18.9678366 L13.2932472,18.9678366 C13.5539042,18.9939614 13.7626904,18.8110879 13.7887561,18.54984" id="Fill-10" fill="#E55050"></path>
                        <mask id="mask-2" fill="white">
                            <use xlink:href="#path-1"></use>
                        </mask>
                        <g id="Clip-2"></g>
                    </g>
                </g>
            </g>
        </g>
    </g>
</svg>