<?xml version="1.0" encoding="UTF-8"?>
<svg width="46px" height="46px" viewBox="0 0 46 46" version="1.1" xmlns="http://www.w3.org/2000/svg" xmlns:xlink="http://www.w3.org/1999/xlink">
    <title>Group 6</title>
    <defs>
        <circle id="path-1" cx="18" cy="18" r="18"></circle>
        <filter x="-15.3%" y="-18.1%" width="147.2%" height="147.2%" filterUnits="objectBoundingBox" id="filter-2">
            <feMorphology radius="1" operator="dilate" in="SourceAlpha" result="shadowSpreadOuter1"></feMorphology>
            <feOffset dx="3" dy="2" in="shadowSpreadOuter1" result="shadowOffsetOuter1"></feOffset>
            <feGaussianBlur stdDeviation="2" in="shadowOffsetOuter1" result="shadowBlurOuter1"></feGaussianBlur>
            <feComposite in="shadowBlurOuter1" in2="SourceAlpha" operator="out" result="shadowBlurOuter1"></feComposite>
            <feColorMatrix values="0 0 0 0 0   0 0 0 0 0   0 0 0 0 0  0 0 0 0.29 0" type="matrix" in="shadowBlurOuter1"></feColorMatrix>
        </filter>
        <polygon id="path-3" points="0 -0.000477591973 19.5130435 -0.000477591973 19.5130435 12.4173913 0 12.4173913"></polygon>
    </defs>
    <g id="Page-1" stroke="none" stroke-width="1" fill="none" fill-rule="evenodd" opacity="0.449428013">
        <g id="2_HyperOtlet_Encyclo_interface_XL" transform="translate(-1168.000000, -722.000000)">
            <g id="Group-6" transform="translate(1170.000000, 725.000000)">
                <g id="Oval">
                    <use fill="black" fill-opacity="1" filter="url(#filter-2)" xlink:href="#path-1"></use>
                    <use stroke="#384651" stroke-width="2" fill="#B1B1B1" fill-rule="evenodd" xlink:href="#path-1"></use>
                </g>
                <g id="Group-12" transform="translate(8.000000, 8.000000)">
                    <path d="M10.178882,1.95399252e-14 C7.36180248,0.00286555184 4.67132547,1.20353177 2.74534161,3.31687625 L2.74534161,0.955183946 C2.74534161,0.427683612 2.32929565,1.95399252e-14 1.81614907,1.95399252e-14 C1.30300248,1.95399252e-14 0.886956522,0.427683612 0.886956522,0.955183946 L0.886956522,5.73110368 C0.886956522,6.25860401 1.30300248,6.68628763 1.81614907,6.68628763 L6.4621118,6.68628763 C6.97525839,6.68628763 7.39130435,6.25860401 7.39130435,5.73110368 C7.39130435,5.20360334 6.97525839,4.77591973 6.4621118,4.77591973 L3.95793789,4.77591973 C7.04448323,1.24388829 12.3320534,0.953034783 15.7677429,4.12615585 C17.5297242,5.75331171 18.5376658,8.07225953 18.5416149,10.5070234 L18.5416149,11.4622074 C18.5416149,11.9897077 18.9576609,12.4173913 19.4708075,12.4173913 C19.983954,12.4173913 20.4,11.9897077 20.4,11.4622074 L20.4,10.5070234 C20.393728,4.70690769 15.8211714,0.00644749164 10.178882,1.95399252e-14" id="Fill-1" fill="#737373" opacity="0.684547061"></path>
                    <g id="Group-5" transform="translate(0.000000, 7.982609)">
                        <mask id="mask-4" fill="white">
                            <use xlink:href="#path-3"></use>
                        </mask>
                        <g id="Clip-4" opacity="0.684547061"></g>
                        <path d="M18.5838509,5.73062609 L13.9378882,5.73062609 C13.4247416,5.73062609 13.0086957,6.1583097 13.0086957,6.68581003 C13.0086957,7.21331037 13.4247416,7.64099398 13.9378882,7.64099398 L16.4420621,7.64099398 C13.3552845,11.1727866 8.06794658,11.4638789 4.63225714,8.29075786 C2.87027578,6.66360201 1.86233416,4.34465418 1.85838509,1.9098903 L1.85838509,0.954706355 C1.85838509,0.42720602 1.44233913,-0.000477591973 0.929192547,-0.000477591973 C0.416045963,-0.000477591973 -1.02371623e-05,0.42720602 -1.02371623e-05,0.954706355 L-1.02371623e-05,1.9098903 C-0.00789813665,7.7049913 4.55536646,12.4092722 10.1927776,12.4174028 C13.0196137,12.4216896 15.7217056,11.220307 17.6546584,9.10003746 L17.6546584,11.4617298 C17.6546584,11.9892301 18.0707043,12.4169137 18.5838509,12.4169137 C19.0969975,12.4169137 19.5130435,11.9892301 19.5130435,11.4617298 L19.5130435,6.68581003 C19.5130435,6.1583097 19.0969975,5.73062609 18.5838509,5.73062609" id="Fill-3" fill="#737373" opacity="0.684547061" mask="url(#mask-4)"></path>
                    </g>
                </g>
            </g>
        </g>
    </g>
</svg>