<?xml version="1.0" encoding="UTF-8"?>
<svg width="30px" height="30px" viewBox="0 0 30 30" version="1.1" xmlns="http://www.w3.org/2000/svg" xmlns:xlink="http://www.w3.org/1999/xlink">
    <!-- Generator: Sketch 51.3 (57544) - http://www.bohemiancoding.com/sketch -->
    <title>Group 13</title>
    <desc>Created with Sketch.</desc>
    <defs>
        <polygon id="path-1" points="0 0.278350515 13.0824433 0.278350515 13.0824433 13.3607938 0 13.3607938"></polygon>
        <polygon id="path-3" points="0.247484536 0.278350515 13.3296495 0.278350515 13.3296495 13.3607938 0.247484536 13.3607938"></polygon>
        <polygon id="path-5" points="0 0.216556701 13.0824433 0.216556701 13.0824433 13.2989691 0 13.2989691"></polygon>
        <polygon id="path-7" points="0.247484536 0.216556701 13.3296495 0.216556701 13.3296495 13.2989691 0.247484536 13.2989691"></polygon>
    </defs>
    <g id="Page-1" stroke="none" stroke-width="1" fill="none" fill-rule="evenodd">
        <g id="specs_integration_2" transform="translate(-109.000000, -2611.000000)">
            <g id="Group-13" transform="translate(109.000000, 2611.000000)">
                <g id="Group-3" transform="translate(0.000000, 0.030928)">
                    <mask id="mask-2" fill="white">
                        <use xlink:href="#path-1"></use>
                    </mask>
                    <g id="Clip-2"></g>
                    <path d="M11.5669794,0.278319588 L1.48450515,0.278319588 C0.680381443,0.278319588 -3.09278351e-05,0.927804124 -3.09278351e-05,1.76285567 L-3.09278351e-05,11.8762577 C-3.09278351e-05,12.6803814 0.649453608,13.3607938 1.48450515,13.3607938 L11.5979072,13.3607938 C12.4020309,13.3607938 13.0824433,12.7113093 13.0824433,11.8762577 L13.0824433,1.76285567 C13.0515155,0.927804124 12.3711031,0.278319588 11.5669794,0.278319588" id="Fill-1" fill="#228D8A" mask="url(#mask-2)"></path>
                </g>
                <g id="Group-6" transform="translate(16.082474, 0.030928)">
                    <mask id="mask-4" fill="white">
                        <use xlink:href="#path-3"></use>
                    </mask>
                    <g id="Clip-5"></g>
                    <path d="M11.8144948,0.278319588 L1.73171134,0.278319588 C0.927896907,0.278319588 0.247484536,0.927804124 0.247484536,1.76285567 L0.247484536,11.8762577 C0.247484536,12.6803814 0.896969072,13.3607938 1.73171134,13.3607938 L11.8454227,13.3607938 C12.6495464,13.3607938 13.3296495,12.7113093 13.3296495,11.8762577 L13.3296495,1.76285567 C13.2990309,0.927804124 12.6495464,0.278319588 11.8144948,0.278319588" id="Fill-4" fill="#228D8A" mask="url(#mask-4)"></path>
                </g>
                <g id="Group-9" transform="translate(0.000000, 16.422680)">
                    <mask id="mask-6" fill="white">
                        <use xlink:href="#path-5"></use>
                    </mask>
                    <g id="Clip-8"></g>
                    <path d="M11.5669794,0.216556701 L1.48450515,0.216556701 C0.680381443,0.216556701 -3.09278351e-05,0.866041237 -3.09278351e-05,1.70109278 L-3.09278351e-05,11.8144948 C-3.09278351e-05,12.6186186 0.649453608,13.2990309 1.48450515,13.2990309 L11.5979072,13.2990309 C12.4020309,13.2990309 13.0824433,12.6495464 13.0824433,11.8144948 L13.0824433,1.70109278 C13.0515155,0.896969072 12.3711031,0.216556701 11.5669794,0.216556701" id="Fill-7" fill="#228D8A" mask="url(#mask-6)"></path>
                </g>
                <g id="Group-12" transform="translate(16.082474, 16.422680)">
                    <mask id="mask-8" fill="white">
                        <use xlink:href="#path-7"></use>
                    </mask>
                    <g id="Clip-11"></g>
                    <path d="M11.8144948,0.216556701 L1.73171134,0.216556701 C0.927896907,0.216556701 0.247484536,0.866041237 0.247484536,1.70109278 L0.247484536,11.8144948 C0.247484536,12.6186186 0.896969072,13.2990309 1.73171134,13.2990309 L11.8454227,13.2990309 C12.6495464,13.2990309 13.3296495,12.6495464 13.3296495,11.8144948 L13.3296495,1.70109278 C13.2990309,0.896969072 12.6495464,0.216556701 11.8144948,0.216556701" id="Fill-10" fill="#228D8A" mask="url(#mask-8)"></path>
                </g>
            </g>
        </g>
    </g>
</svg>