<?xml version="1.0" encoding="UTF-8"?>
<svg width="17px" height="21px" viewBox="0 0 17 21" version="1.1" xmlns="http://www.w3.org/2000/svg" xmlns:xlink="http://www.w3.org/1999/xlink">
    <title>Group 30</title>
    <g id="Page-1" stroke="none" stroke-width="1" fill="none" fill-rule="evenodd">
        <g id="specs_integration_general" transform="translate(-965.000000, -2383.000000)" fill="#F7A448">
            <g id="Group-30" transform="translate(965.000000, 2383.000000)">
                <path d="M1.19370632,5.39366211 L2.40949579,20.9999779 L14.4128747,20.9999779 L15.6063379,5.39366211 L1.19370632,5.39366211 Z M10.8097168,17.9934411 L12.00318,17.9934411 L12.00318,8.39997789 L10.8097168,8.39997789 L10.8097168,17.9934411 Z M7.80318,17.9934411 L8.99686421,17.9934411 L8.99686421,8.39997789 L7.80318,8.39997789 L7.80318,17.9934411 Z M4.79686421,17.9934411 L5.99054842,17.9934411 L5.99054842,8.39997789 L4.79686421,8.39997789 L4.79686421,17.9934411 Z" id="Fill-1"></path>
                <polygon id="Fill-2" points="5.99052632 -9.05941988e-14 5.99052632 1.79052632 -3.64153152e-13 1.79052632 -3.64153152e-13 4.2 16.8 4.2 16.8 1.79052632 10.8096947 1.79052632 10.8096947 -9.05941988e-14"></polygon>
            </g>
        </g>
    </g>
</svg>