<?xml version="1.0" encoding="UTF-8"?>
<svg width="27px" height="25px" viewBox="0 0 27 25" version="1.1" xmlns="http://www.w3.org/2000/svg" xmlns:xlink="http://www.w3.org/1999/xlink">
    <title>Group 7</title>
    <defs>
        <polygon id="path-1" points="0.210696552 0 26.1366225 0 26.1366225 25 0.210696552 25"></polygon>
    </defs>
    <g id="Page-1" stroke="none" stroke-width="1" fill="none" fill-rule="evenodd">
        <g id="10_HyperOtlet_EncycloV3_liste_XL" transform="translate(-118.000000, -516.000000)">
            <g id="Group-9" transform="translate(71.000000, 255.000000)">
                <g id="Group-19" transform="translate(47.000000, 261.000000)">
                    <g id="Group-7" transform="translate(-0.000000, 0.000000)">
                        <mask id="mask-2" fill="white">
                            <use xlink:href="#path-1"></use>
                        </mask>
                        <g id="Clip-6"></g>
                        <path d="M23.1167072,13.3779819 C23.1167072,13.5833953 22.955697,13.796696 22.7584509,13.8522502 L20.9787922,14.2342711 C20.7928271,14.9269841 20.5186653,15.5830039 20.1696388,16.1906709 L21.1596296,17.7245843 C21.2597909,17.9032494 21.2235551,18.168675 21.0789535,18.3140762 L19.2630589,20.1357055 C19.1181155,20.2807637 18.8538673,20.3177998 18.675081,20.2169792 L17.1463384,19.223862 C16.5405844,19.5739907 15.8866299,19.8490184 15.1957559,20.0355708 L14.8152795,21.8208498 C14.760242,22.0187188 14.5472709,22.1802375 14.3425042,22.1802375 L11.7745449,22.1802375 C11.5697781,22.1802375 11.3568071,22.0183759 11.3017696,21.8208498 L10.9212932,20.0355708 C10.2304191,19.8490184 9.57646462,19.5739907 8.97071063,19.223862 L7.44196805,20.2169792 C7.26352358,20.3174569 6.99893352,20.2807637 6.85433198,20.1357055 L5.03809554,18.3140762 C4.893494,18.169018 4.85725815,17.9035923 4.9574195,17.7245843 L5.94741023,16.1906709 C5.5983838,15.5830039 5.32422201,14.9269841 5.1382569,14.2342711 L3.35859816,13.8522502 C3.16135208,13.796696 3,13.5830524 3,13.3779819 L3,10.8019127 C3,10.5964993 3.16135208,10.3831986 3.35859816,10.3276444 L5.1382569,9.94596638 C5.32422201,9.25325342 5.5983838,8.59723367 5.94741023,7.98956665 L4.9574195,6.45599617 C4.85725815,6.27664524 4.893494,6.0115625 5.03809554,5.86616137 L6.85433198,4.04453203 C6.99893352,3.89947382 7.26318174,3.8627806 7.44196805,3.96325828 L8.97071063,4.95637548 C9.57646462,4.6062468 10.230761,4.33121917 10.9212932,4.14466677 L11.3017696,2.35938772 C11.3568071,2.16151872 11.5697781,2 11.7745449,2 L14.3425042,2 C14.5472709,2 14.760242,2.16186164 14.8152795,2.35938772 L15.1957559,4.14466677 C15.8869718,4.33121917 16.5405844,4.6062468 17.1463384,4.95637548 L18.675081,3.96325828 C18.8535255,3.8627806 19.1181155,3.89947382 19.2630589,4.04453203 L21.0789535,5.86616137 C21.2235551,6.01121958 21.2597909,6.27664524 21.1596296,6.45565324 L20.1696388,7.98956665 C20.5186653,8.59723367 20.7928271,9.25325342 20.9787922,9.94596638 L22.7584509,10.3276444 C22.955697,10.3831986 23.1167072,10.5968422 23.1167072,10.8019127 L23.1167072,13.3779819 Z" id="Path" fill="#A2ADF2"></path>
                        <circle id="Oval" fill="#FDFDFD" cx="13" cy="12" r="4"></circle>
                    </g>
                </g>
            </g>
        </g>
    </g>
</svg>