<?xml version="1.0" encoding="UTF-8"?>
<svg width="27px" height="25px" viewBox="0 0 27 25" version="1.1" xmlns="http://www.w3.org/2000/svg" xmlns:xlink="http://www.w3.org/1999/xlink">
    <title>Group 7</title>
    <defs>
        <polygon id="path-1" points="0.210696552 0 26.1366225 0 26.1366225 25 0.210696552 25"></polygon>
    </defs>
    <g id="Page-1" stroke="none" stroke-width="1" fill="none" fill-rule="evenodd">
        <g id="8_HyperOtlet_Encyclo_interface_XL" transform="translate(-118.000000, -476.000000)">
            <g id="Group-9" transform="translate(71.000000, 255.000000)">
                <g id="Group-7" transform="translate(47.000000, 221.000000)">
                    <mask id="mask-2" fill="white">
                        <use xlink:href="#path-1"></use>
                    </mask>
                    <g id="Clip-6"></g>
                    <path d="M22.894485,13.2298338 C22.894485,13.4352472 22.7334748,13.6485479 22.5362287,13.7041021 L20.7565699,14.086123 C20.5706048,14.778836 20.296443,15.4348557 19.9474166,16.0425227 L20.9374073,17.5764361 C21.0375687,17.7551012 21.0013328,18.0205269 20.8567313,18.165928 L19.0408367,19.9875574 C18.8958933,20.1326156 18.6316451,20.1696517 18.4528588,20.0688311 L16.9241162,19.0757139 C16.3183622,19.4258426 15.6644077,19.7008702 14.9735337,19.8874226 L14.5930573,21.6727017 C14.5380198,21.8705707 14.3250487,22.0320894 14.120282,22.0320894 L11.5523226,22.0320894 C11.3475559,22.0320894 11.1345848,21.8702277 11.0795474,21.6727017 L10.699071,19.8874226 C10.0081969,19.7008702 9.3542424,19.4258426 8.7484884,19.0757139 L7.21974582,20.0688311 C7.04130136,20.1693088 6.7767113,20.1326156 6.63210975,19.9875574 L4.81587332,18.165928 C4.67127178,18.0208698 4.63503593,17.7554441 4.73519728,17.5764361 L5.725188,16.0425227 C5.37616158,15.4348557 5.10199978,14.778836 4.91603468,14.086123 L3.13637594,13.7041021 C2.93912986,13.6485479 2.77777778,13.4349042 2.77777778,13.2298338 L2.77777778,10.6537646 C2.77777778,10.4483512 2.93912986,10.2350504 3.13637594,10.1794962 L4.91603468,9.79781823 C5.10199978,9.10510527 5.37616158,8.44908552 5.725188,7.8414185 L4.73519728,6.30784802 C4.63503593,6.12849709 4.67127178,5.86341435 4.81587332,5.71801322 L6.63210975,3.89638388 C6.7767113,3.75132567 7.04095951,3.71463246 7.21974582,3.81511013 L8.7484884,4.80822733 C9.3542424,4.45809865 10.0085388,4.18307103 10.699071,3.99651862 L11.0795474,2.21123957 C11.1345848,2.01337057 11.3475559,1.85185185 11.5523226,1.85185185 L14.120282,1.85185185 C14.3250487,1.85185185 14.5380198,2.01371349 14.5930573,2.21123957 L14.9735337,3.99651862 C15.6647496,4.18307103 16.3183622,4.45809865 16.9241162,4.80822733 L18.4528588,3.81511013 C18.6313033,3.71463246 18.8958933,3.75132567 19.0408367,3.89638388 L20.8567313,5.71801322 C21.0013328,5.86307143 21.0375687,6.12849709 20.9374073,6.30750509 L19.9474166,7.8414185 C20.296443,8.44908552 20.5706048,9.10510527 20.7565699,9.79781823 L22.5362287,10.1794962 C22.7334748,10.2350504 22.894485,10.4486941 22.894485,10.6537646 L22.894485,13.2298338 Z" id="Path" fill="#E55050"></path>
                    <circle id="Oval" fill="#FDFDFD" cx="12.5" cy="11.5740741" r="4.16666667"></circle>
                </g>
            </g>
        </g>
    </g>
</svg>