<?xml version="1.0" encoding="UTF-8"?>
<svg width="20px" height="21px" viewBox="0 0 20 21" version="1.1" xmlns="http://www.w3.org/2000/svg" xmlns:xlink="http://www.w3.org/1999/xlink">
    <title>Group 7</title>
    <defs>
        <polygon id="path-1" points="5e-05 0.160469136 19.85 0.160469136 19.85 6.4197284 5e-05 6.4197284"></polygon>
        <polygon id="path-3" points="0.20625 0.185185185 11.6523834 0.185185185 11.6523834 14.9690864 0.20625 14.9690864"></polygon>
    </defs>
    <g id="Page-1" stroke="none" stroke-width="1" fill="none" fill-rule="evenodd">
        <g id="7_HyperOtlet_FicheV2_utilisateurconnecté_XL" transform="translate(-707.000000, -115.000000)">
            <g id="Group-14" transform="translate(157.000000, 61.000000)">
                <g id="Group" transform="translate(531.000000, 45.000000)">
                    <g id="Group-7" transform="translate(19.000000, 9.000000)">
                        <g id="Group-3" transform="translate(0.000000, 13.395062)">
                            <mask id="mask-2" fill="white">
                                <use xlink:href="#path-1"></use>
                            </mask>
                            <g id="Clip-2"></g>
                            <path d="M19.85005,1.0925679 L19.85005,5.43207407 C19.85005,5.51849383 19.83755,5.59874074 19.8188,5.67281481 C19.73105,6.09874074 19.35005,6.4197284 18.90005,6.4197284 L0.9438,6.4197284 C0.46255,6.4197284 0.06255,6.05553086 0.01255,5.5925679 C5e-05,5.53701235 5e-05,5.48762963 5e-05,5.42590123 L5e-05,1.08639506 C5e-05,0.574049383 0.42505,0.160469136 0.93755,0.160469136 C1.1938,0.160469136 1.4313,0.265407407 1.60005,0.432074074 C1.7688,0.598740741 1.87505,0.833308642 1.87505,1.08639506 L1.87505,4.5617037 L17.98105,4.5617037 L17.98105,1.08639506 C17.98105,0.574049383 18.4063,0.160469136 18.91855,0.160469136 C19.17505,0.160469136 19.41255,0.265407407 19.5813,0.432074074 C19.7438,0.60491358 19.85005,0.839481481 19.85005,1.0925679" id="Fill-1" fill="#467278" mask="url(#mask-2)"></path>
                        </g>
                        <g id="Group-6" transform="translate(4.000000, 0.061728)">
                            <mask id="mask-4" fill="white">
                                <use xlink:href="#path-3"></use>
                            </mask>
                            <g id="Clip-5"></g>
                            <path d="M11.33125,10.0801975 L6.725,14.6295802 C6.71875,14.6419259 6.70625,14.6480988 6.7,14.6542716 C6.53125,14.8209383 6.3125,14.9258765 6.09375,14.9567407 C6.075,14.9567407 6.05625,14.9629136 6.0375,14.9629136 C6,14.9690864 5.9625,14.9690864 5.925,14.9690864 L5.81875,14.9629136 C5.8,14.9629136 5.78125,14.9567407 5.7625,14.9567407 C5.5375,14.9258765 5.325,14.8209383 5.15625,14.6542716 C5.15,14.6480988 5.1375,14.6357531 5.13125,14.6295802 L0.525,10.0801975 C0.3125,9.87032099 0.20625,9.59254321 0.20625,9.31476543 C0.20625,9.03698765 0.3125,8.75920988 0.525,8.54933333 C0.95,8.12958025 1.64375,8.12958025 2.075,8.54933333 L4.84375,11.2839012 L4.84375,1.26538272 C4.84375,0.672790123 5.3375,0.185135802 5.9375,0.185135802 C6.2375,0.185135802 6.5125,0.308592593 6.7125,0.499950617 C6.9125,0.697481481 7.03125,0.96291358 7.03125,1.26538272 L7.03125,11.2839012 L9.8,8.54933333 C10.225,8.12958025 10.91875,8.12958025 11.35,8.54933333 C11.75625,8.97525926 11.75625,9.66044444 11.33125,10.0801975" id="Fill-4" fill="#467278" mask="url(#mask-4)"></path>
                        </g>
                    </g>
                </g>
            </g>
        </g>
    </g>
</svg>