<?xml version="1.0" encoding="UTF-8"?>
<svg width="30px" height="30px" viewBox="0 0 30 30" version="1.1" xmlns="http://www.w3.org/2000/svg" xmlns:xlink="http://www.w3.org/1999/xlink">
    <title>zoom_plus_off</title>
    <defs>
        <polygon id="path-1" points="2.0783375e-13 -4.17443857e-14 13.8461538 -4.17443857e-14 13.8461538 14.025974 2.0783375e-13 14.025974"></polygon>
    </defs>
    <g id="Page-1" stroke="none" stroke-width="1" fill="none" fill-rule="evenodd">
        <g id="zoom_plus_off" transform="translate(1.000000, 1.000000)">
            <path d="M14,0 C17.6709917,0 21.0119395,1.4129631 23.5088078,3.7245793 C26.0334964,6.0619517 27.6946811,9.31833386 27.9620425,12.9617922 L27.9620425,12.9617922 L28.0027078,28 L0,28 L0,12.9599719 C0.287033288,9.31466829 1.95991681,6.0567659 4.49198207,3.71947489 C6.99307921,1.41076984 10.3318103,0 14,0 Z" id="Combined-Shape" stroke="#384651" stroke-width="2" fill="#B5C7CB" fill-rule="nonzero" stroke-linejoin="round"></path>
            <g id="Fill-1-Clipped" transform="translate(7.000000, 8.000000)">
                <mask id="mask-2" fill="white">
                    <use xlink:href="#path-1"></use>
                </mask>
                <g id="path-1"></g>
                <path d="M6.48232848,0.965952966 L6.48232848,6.46261846 L1.05613306,6.46261846 C0.642806653,6.46261846 0.307692308,6.80208494 0.307692308,7.22077922 C0.307692308,7.6394735 0.642806653,7.97893998 1.05613306,7.97893998 L6.48232848,7.97893998 L6.48232848,13.4756055 C6.48232848,13.8942998 6.81744283,14.2337662 7.23076923,14.2337662 C7.64409563,14.2337662 7.97920998,13.8942998 7.97920998,13.4756055 L7.97920998,7.97893998 C9.01409101,7.97893998 9.79025179,7.97893998 10.3076923,7.97893998 C10.996073,7.97893998 12.028644,7.97893998 13.4054054,7.97893998 C13.8187318,7.97893998 14.1538462,7.6394735 14.1538462,7.22077922 C14.1538462,6.80208494 13.8187318,6.46261846 13.4054054,6.46261846 L7.97920998,6.46261846 L7.97920998,0.965952966 C7.97920998,0.547258687 7.64409563,0.207792208 7.23076923,0.207792208 C6.81744283,0.207792208 6.48232848,0.547258687 6.48232848,0.965952966 Z" id="Fill-1" fill="#384651" fill-rule="nonzero" mask="url(#mask-2)"></path>
            </g>
        </g>
    </g>
</svg>