<?xml version="1.0" encoding="UTF-8"?>
<svg width="30px" height="30px" viewBox="0 0 30 30" version="1.1" xmlns="http://www.w3.org/2000/svg" xmlns:xlink="http://www.w3.org/1999/xlink">
    <title>zoom</title>
    <defs>
        <polygon id="path-1" points="2.0783375e-13 -4.17443857e-14 13.8461538 -4.17443857e-14 13.8461538 14.025974 2.0783375e-13 14.025974"></polygon>
    </defs>
    <g id="Page-1" stroke="none" stroke-width="1" fill="none" fill-rule="evenodd">
        <g id="2_HyperOtlet_Encyclo_interface_XL" transform="translate(-1218.000000, -516.000000)">
            <g id="zoom" transform="translate(1220.000000, 518.000000)">
                <path d="M13,-1 C16.6709917,-1 20.0119395,0.412963103 22.5088078,2.7245793 C25.0334964,5.0619517 26.6946811,8.31833386 26.9620425,11.9617922 L26.9620425,11.9617922 L27.0027078,27 L-1,27 L-1,11.9599719 C-0.712966712,8.31466829 0.959916808,5.0567659 3.49198207,2.71947489 C5.99307921,0.410769843 9.33181031,-1 13,-1 Z" id="Combined-Shape" stroke="#384651" stroke-width="2" fill="#F6F6F2" stroke-linejoin="round"></path>
                <g id="+" transform="translate(6.000000, 7.000000)">
                    <mask id="mask-2" fill="white">
                        <use xlink:href="#path-1"></use>
                    </mask>
                    <g id="Clip-2"></g>
                    <path d="M6.48232848,0.965952966 L6.48232848,6.46261846 L1.05613306,6.46261846 C0.642806653,6.46261846 0.307692308,6.80208494 0.307692308,7.22077922 C0.307692308,7.6394735 0.642806653,7.97893998 1.05613306,7.97893998 L6.48232848,7.97893998 L6.48232848,13.4756055 C6.48232848,13.8942998 6.81744283,14.2337662 7.23076923,14.2337662 C7.64409563,14.2337662 7.97920998,13.8942998 7.97920998,13.4756055 L7.97920998,7.97893998 C9.01409101,7.97893998 9.79025179,7.97893998 10.3076923,7.97893998 C10.996073,7.97893998 12.028644,7.97893998 13.4054054,7.97893998 C13.8187318,7.97893998 14.1538462,7.6394735 14.1538462,7.22077922 C14.1538462,6.80208494 13.8187318,6.46261846 13.4054054,6.46261846 L7.97920998,6.46261846 L7.97920998,0.965952966 C7.97920998,0.547258687 7.64409563,0.207792208 7.23076923,0.207792208 C6.81744283,0.207792208 6.48232848,0.547258687 6.48232848,0.965952966 Z" id="Fill-1" fill="#384651" mask="url(#mask-2)"></path>
                </g>
            </g>
        </g>
    </g>
</svg>